Introducción a R y Tidyverse
…
**Código:**

````
```{r}
as_tibble(mtcars) %>%
          print(n = 3)
```
````

**Salida: **

```
## # A tibble: 32 × 11
##     mpg   cyl  disp    hp  drat    wt  qsec    vs    am  gear  carb
##   <dbl> <dbl> <dbl> <dbl> <dbl> <dbl> <dbl> <dbl> <dbl> <dbl> <dbl>
## 1  21       6   160   110  3.9   2.62  16.5     0     1     4     4
## 2  21       6   160   110  3.9   2.88  17.0     0     1     4     4
## 3  22.8     4   108    93  3.85  2.32  18.6     1     1     4     1
## # … with 29 more rows
```
…
.scroll-output350[

```r
library(dplyr)
library(ggplot2)
library(ggcharts)
data("biomedicalrevenue")
biomedicalrevenue %>%
  as_tibble() %>%
  filter(year %in% c(2012, 2015, 2018))
```

```
## # A tibble: 84 × 3
##    company            year revenue
##    <chr>             <int>   <dbl>
##  1 Johnson & Johnson  2018    81.6
##  2 Johnson & Johnson  2015    70.1
##  3 Johnson & Johnson  2012    67.2
##  4 Roche              2018    56.9
##  5 Roche              2015    47.7
##  6 Roche              2012    47.8
##  7 Pfizer             2018    53.6
##  8 Pfizer             2015    48.8
##  9 Pfizer             2012    59.0
## 10 Novartis           2018    51.9
## # … with 74 more rows
```
…
## Uso de ggcharts
.panel1-bar_chart_1-user[

```r
*biomedicalrevenue %>%
* as_tibble()
```
]
 
.panel2-bar_chart_1-user[

```
## # A tibble: 224 × 3
##    company            year revenue
##    <chr>             <int>   <dbl>
##  1 Johnson & Johnson  2018    81.6
##  2 Johnson & Johnson  2017    76.5
##  3 Johnson & Johnson  2016    71.9
##  4 Johnson & Johnson  2015    70.1
##  5 Johnson & Johnson  2014    74.3
##  6 Johnson & Johnson  2013    71.3
##  7 Johnson & Johnson  2012    67.2
##  8 Johnson & Johnson  2011    65  
##  9 Roche              2018    56.9
## 10 Roche              2017    57.4
## # … with 214 more rows
```
…
## Uso de ggcharts
.panel1-bar_chart_1-user[

```r
biomedicalrevenue %>%
  as_tibble() %>%
* filter(year == 2018)
```
]
 
.panel2-bar_chart_1-user[

```
## # A tibble: 28 × 3
##    company              year revenue
##    <chr>               <int>   <dbl>
##  1 Johnson & Johnson    2018    81.6
##  2 Roche                2018    56.9
##  3 Pfizer               2018    53.6
##  4 Novartis             2018    51.9
##  5 Bayer                2018    45.1
##  6 GlaxoSmithKline      2018    43.1
##  7 Merck & Co.          2018    42.3
##  8 Sanofi               2018    39.1
##  9 AbbVie               2018    32.8
## 10 Abbott Laboratories  2018    30.6
## # … with 18 more rows
```
…
## Uso de ggcharts
.panel1-bar_chart_2-user[

```r
*biomedicalrevenue %>%
* as_tibble()
```
]
 
.panel2-bar_chart_2-user[

```
## # A tibble: 224 × 3
##    company            year revenue
##    <chr>             <int>   <dbl>
##  1 Johnson & Johnson  2018    81.6
##  2 Johnson & Johnson  2017    76.5
##  3 Johnson & Johnson  2016    71.9
##  4 Johnson & Johnson  2015    70.1
##  5 Johnson & Johnson  2014    74.3
##  6 Johnson & Johnson  2013    71.3
##  7 Johnson & Johnson  2012    67.2
##  8 Johnson & Johnson  2011    65  
##  9 Roche              2018    56.9
## 10 Roche              2017    57.4
## # … with 214 more rows
```
…
## Uso de ggcharts
.panel1-bar_chart_2-user[

```r
biomedicalrevenue %>%
  as_tibble() %>%
* filter(year %in% c(2012, 2015, 2018))
```
]
 
.panel2-bar_chart_2-user[

```
## # A tibble: 84 × 3
##    company            year revenue
##    <chr>             <int>   <dbl>
##  1 Johnson & Johnson  2018    81.6
##  2 Johnson & Johnson  2015    70.1
##  3 Johnson & Johnson  2012    67.2
##  4 Roche              2018    56.9
##  5 Roche              2015    47.7
##  6 Roche              2012    47.8
##  7 Pfizer             2018    53.6
##  8 Pfizer             2015    48.8
##  9 Pfizer             2012    59.0
## 10 Novartis           2018    51.9
## # … with 74 more rows
```
…
