Introducción a R y Tidyverse
…
.pull-right[
.scroll-output375[

```r
rec94 <- rec94 %>%
  mutate(
    HHID = str_sub(CASEID, 1, str_length(CASEID) - 3),
    CASEID = str_sub(CASEID, -2, -1),
    CASEID = as.numeric(CASEID),
    .after = ID1
  )
```

```
## # A tibble: 17,242 × 62
##      ID1 HHID         CASEID IDX94 S410B   S411B   S411F   S411G   S411H   S411I
##    <dbl> <chr>         <dbl> <dbl> <dbl> <dbl+l> <dbl+l> <dbl+l> <dbl+l> <dbl+l>
##  1  2020 "      0001…      2     1     9 NA      NA      NA      NA      NA     
##  2  2020 "      0001…      2     1     9 NA      NA      NA      NA      NA     
##  3  2020 "      0001…      2     1     8 NA      NA      NA      NA      NA     
##  4  2020 "      0001…      2     1     9 NA      NA      NA      NA      NA     
##  5  2020 "      0001…      2     1     9 NA      NA      NA      NA      NA     
##  6  2020 "      0002…      2     1     9 NA      NA      NA      NA      NA     
##  7  2020 "      0002…      2     1     8 NA      NA      NA      NA      NA     
##  8  2020 "      0003…      2     1     7  1 [Si]  1 [Si]  1 [Si]  1 [Si]  1 [Si]
##  9  2020 "      0003…      2     2    NA NA      NA      NA      NA      NA     
## 10  2020 "      0003…      2     1     9  1 [Si]  1 [Si]  1 [Si]  1 [Si]  1 [Si]
## # … with 17,232 more rows, and 52 more variables: S411J <dbl+lbl>,
## #   S411K <dbl+lbl>, S411L <dbl+lbl>, S411BA <dbl+lbl>, S411CA <dbl+lbl>,
## #   S411DA <dbl+lbl>, S411EA <dbl+lbl>, S413 <dbl+lbl>, S422I <dbl+lbl>,
## #   S426B <dbl+lbl>, S426E <dbl+lbl>, S426FA <dbl+lbl>, S426FB <dbl+lbl>,
## #   S426GA <dbl+lbl>, S426GB <dbl+lbl>, S426GC <dbl+lbl>, S426GD <dbl+lbl>,
## #   S426GE <dbl+lbl>, S430C <dbl+lbl>, S430D <dbl+lbl>, S431A <dbl+lbl>,
## #   S425A <dbl+lbl>, S432 <dbl+lbl>, S432AD <dbl+lbl>, S432AM <dbl+lbl>, …
```
…
---
### Solución 1
En esta primera solución usaremos la función `rename` para seguir con el enfoque *tidyverse*.

```r
rec1 %>%
  rename(CASEID = HVIDX) %>%
  inner_join(
    rec94,
    by = c("HHID", "CASEID")
  )
```

```
## # A tibble: 17,242 × 96
##    ID1.x HHID       CASEID   HV101  HV102  HV103   HV104 HV105   HV106 HV107 HV108   HV109
##    <dbl> <chr>       <dbl> <dbl+l> <dbl+> <dbl+> <dbl+l> <dbl> <dbl+l> <dbl> <dbl> <dbl+l>
##  1  2020 "      00…      2 2 [Esp… 1 [Sí] 1 [Sí] 2 [Muj…    36 3 [Sup…     3    14 5 [Sup…
##  2  2020 "      00…      2 2 [Esp… 1 [Sí] 1 [Sí] 2 [Muj…    32 3 [Sup…     3    14 5 [Sup…
##  3  2020 "      00…      2 2 [Esp… 1 [Sí] 1 [Sí] 2 [Muj…    27 2 [Sec…     5    11 4 [Sec…
##  4  2020 "      00…      2 2 [Esp… 1 [Sí] 1 [Sí] 2 [Muj…    35 3 [Sup…     5    16 5 [Sup…
##  5  2020 "      00…      2 2 [Esp… 1 [Sí] 1 [Sí] 2 [Muj…    35 2 [Sec…     5    11 4 [Sec…
##  6  2020 "      00…      2 2 [Esp… 1 [Sí] 1 [Sí] 2 [Muj…    30 3 [Sup…     3    14 5 [Sup…
##  7  2020 "      00…      2 2 [Esp… 1 [Sí] 1 [Sí] 2 [Muj…    26 3 [Sup…     2    13 5 [Sup…
##  8  2020 "      00…      2 2 [Esp… 1 [Sí] 1 [Sí] 2 [Muj…    34 3 [Sup…     3    14 5 [Sup…
##  9  2020 "      00…      2 2 [Esp… 1 [Sí] 1 [Sí] 2 [Muj…    34 3 [Sup…     3    14 5 [Sup…
## 10  2020 "      00…      2 2 [Esp… 1 [Sí] 1 [Sí] 2 [Muj…    24 2 [Sec…     5    11 4 [Sec…
## # … with 17,232 more rows, and 84 more variables: HV110 <dbl+lbl>, HV111 <dbl+lbl>,
## #   HV112 <dbl+lbl>, HV113 <dbl+lbl>, HV114 <dbl+lbl>, HV115 <dbl+lbl>, HV116 <dbl+lbl>,
## #   HV117 <dbl+lbl>, HV118 <dbl+lbl>, HV120 <dbl+lbl>, HV121 <dbl+lbl>, HV122 <dbl+lbl>,
## #   HV123 <dbl+lbl>, HV124 <dbl+lbl>, HV125 <dbl+lbl>, HV126 <dbl+lbl>, HV127 <dbl+lbl>,
## #   HV128 <dbl+lbl>, HV129 <dbl+lbl>, QH21A <dbl+lbl>, QH25A <chr>, QH25B <dbl+lbl>,
## #   QH25CM <dbl>, QH25CA <dbl>, ID1.y <dbl>, IDX94 <dbl>, S410B <dbl+lbl>,
## #   S411B <dbl+lbl>, S411F <dbl+lbl>, S411G <dbl+lbl>, S411H <dbl+lbl>, …
```

---
### Solución 2
Esta solución es mucho más directa y requiere menos código.

```r
rec1 %>%
  inner_join(
    rec94,
    by = c("HHID", "HVIDX" = "CASEID")
  )
```

```
## # A tibble: 17,242 × 96
##    ID1.x HHID        HVIDX   HV101  HV102  HV103   HV104 HV105   HV106 HV107 HV108   HV109
##    <dbl> <chr>       <dbl> <dbl+l> <dbl+> <dbl+> <dbl+l> <dbl> <dbl+l> <dbl> <dbl> <dbl+l>
##  1  2020 "      000…     2 2 [Esp… 1 [Sí] 1 [Sí] 2 [Muj…    36 3 [Sup…     3    14 5 [Sup…
##  2  2020 "      000…     2 2 [Esp… 1 [Sí] 1 [Sí] 2 [Muj…    32 3 [Sup…     3    14 5 [Sup…
##  3  2020 "      000…     2 2 [Esp… 1 [Sí] 1 [Sí] 2 [Muj…    27 2 [Sec…     5    11 4 [Sec…
##  4  2020 "      000…     2 2 [Esp… 1 [Sí] 1 [Sí] 2 [Muj…    35 3 [Sup…     5    16 5 [Sup…
##  5  2020 "      000…     2 2 [Esp… 1 [Sí] 1 [Sí] 2 [Muj…    35 2 [Sec…     5    11 4 [Sec…
##  6  2020 "      000…     2 2 [Esp… 1 [Sí] 1 [Sí] 2 [Muj…    30 3 [Sup…     3    14 5 [Sup…
##  7  2020 "      000…     2 2 [Esp… 1 [Sí] 1 [Sí] 2 [Muj…    26 3 [Sup…     2    13 5 [Sup…
##  8  2020 "      000…     2 2 [Esp… 1 [Sí] 1 [Sí] 2 [Muj…    34 3 [Sup…     3    14 5 [Sup…
##  9  2020 "      000…     2 2 [Esp… 1 [Sí] 1 [Sí] 2 [Muj…    34 3 [Sup…     3    14 5 [Sup…
## 10  2020 "      000…     2 2 [Esp… 1 [Sí] 1 [Sí] 2 [Muj…    24 2 [Sec…     5    11 4 [Sec…
## # … with 17,232 more rows, and 84 more variables: HV110 <dbl+lbl>, HV111 <dbl+lbl>,
## #   HV112 <dbl+lbl>, HV113 <dbl+lbl>, HV114 <dbl+lbl>, HV115 <dbl+lbl>, HV116 <dbl+lbl>,
## #   HV117 <dbl+lbl>, HV118 <dbl+lbl>, HV120 <dbl+lbl>, HV121 <dbl+lbl>, HV122 <dbl+lbl>,
## #   HV123 <dbl+lbl>, HV124 <dbl+lbl>, HV125 <dbl+lbl>, HV126 <dbl+lbl>, HV127 <dbl+lbl>,
## #   HV128 <dbl+lbl>, HV129 <dbl+lbl>, QH21A <dbl+lbl>, QH25A <chr>, QH25B <dbl+lbl>,
## #   QH25CM <dbl>, QH25CA <dbl>, ID1.y <dbl>, IDX94 <dbl>, S410B <dbl+lbl>,
## #   S411B <dbl+lbl>, S411F <dbl+lbl>, S411G <dbl+lbl>, S411H <dbl+lbl>, …
```
…
---
## Uso de `left_join()`

Nombraremos primero a rec1 que tiene 139653 filas, frente a las 17242 filas en `rec94`.

```r
rec1 %>%
  left_join(
    rec94,
    by = c("HHID", "HVIDX" = "CASEID")
  )
```

```
## # A tibble: 141,773 × 96
##    ID1.x HHID        HVIDX   HV101  HV102  HV103   HV104 HV105   HV106 HV107 HV108   HV109
##    <dbl> <chr>       <dbl> <dbl+l> <dbl+> <dbl+> <dbl+l> <dbl> <dbl+l> <dbl> <dbl> <dbl+l>
##  1  2020 "      000…     1 1 [Jef… 1 [Sí] 1 [Sí] 1 [Hom…    30 2 [Sec…     5    11 4 [Sec…
##  2  2020 "      000…     1 1 [Jef… 1 [Sí] 1 [Sí] 1 [Hom…    26 3 [Sup…     3    14 5 [Sup…
##  3  2020 "      000…     2 2 [Esp… 1 [Sí] 1 [Sí] 2 [Muj…    25 3 [Sup…     1    12 5 [Sup…
##  4  2020 "      000…     3 3 [Hij… 1 [Sí] 1 [Sí] 1 [Hom…     5 0 [Sin…    NA     0 0 [Sin…
##  5  2020 "      000…     1 1 [Jef… 1 [Sí] 1 [Sí] 1 [Hom…    52 3 [Sup…     2    18 5 [Sup…
##  6  2020 "      000…     2 2 [Esp… 1 [Sí] 1 [Sí] 2 [Muj…    36 3 [Sup…     3    14 5 [Sup…
##  7  2020 "      000…     3 3 [Hij… 1 [Sí] 1 [Sí] 1 [Hom…     7 1 [Pri…     1     1 1 [Pri…
##  8  2020 "      000…     4 3 [Hij… 1 [Sí] 1 [Sí] 1 [Hom…     4 0 [Sin…    NA     0 0 [Sin…
##  9  2020 "      000…     1 1 [Jef… 1 [Sí] 1 [Sí] 1 [Hom…    65 2 [Sec…     5    11 4 [Sec…
## 10  2020 "      000…     2 2 [Esp… 1 [Sí] 1 [Sí] 2 [Muj…    48 3 [Sup…     5    16 5 [Sup…
## # … with 141,763 more rows, and 84 more variables: HV110 <dbl+lbl>, HV111 <dbl+lbl>,
## #   HV112 <dbl+lbl>, HV113 <dbl+lbl>, HV114 <dbl+lbl>, HV115 <dbl+lbl>, HV116 <dbl+lbl>,
## #   HV117 <dbl+lbl>, HV118 <dbl+lbl>, HV120 <dbl+lbl>, HV121 <dbl+lbl>, HV122 <dbl+lbl>,
## #   HV123 <dbl+lbl>, HV124 <dbl+lbl>, HV125 <dbl+lbl>, HV126 <dbl+lbl>, HV127 <dbl+lbl>,
## #   HV128 <dbl+lbl>, HV129 <dbl+lbl>, QH21A <dbl+lbl>, QH25A <chr>, QH25B <dbl+lbl>,
## #   QH25CM <dbl>, QH25CA <dbl>, ID1.y <dbl>, IDX94 <dbl>, S410B <dbl+lbl>,
## #   S411B <dbl+lbl>, S411F <dbl+lbl>, S411G <dbl+lbl>, S411H <dbl+lbl>, …
```
---
## Uso de `right_join()`

Seguiremos el mismo orden de nombramiento, debido a que estamos usando la función `right_join`, el output de esta unión debería tener un total de 17242 filas.

```r
rec1 %>%
  right_join(
    rec94,
    by = c("HHID", "HVIDX" = "CASEID")
  )
```

```
## # A tibble: 17,242 × 96
##    ID1.x HHID        HVIDX   HV101  HV102  HV103   HV104 HV105   HV106 HV107 HV108   HV109
##    <dbl> <chr>       <dbl> <dbl+l> <dbl+> <dbl+> <dbl+l> <dbl> <dbl+l> <dbl> <dbl> <dbl+l>
##  1  2020 "      000…     2 2 [Esp… 1 [Sí] 1 [Sí] 2 [Muj…    36 3 [Sup…     3    14 5 [Sup…
##  2  2020 "      000…     2 2 [Esp… 1 [Sí] 1 [Sí] 2 [Muj…    32 3 [Sup…     3    14 5 [Sup…
##  3  2020 "      000…     2 2 [Esp… 1 [Sí] 1 [Sí] 2 [Muj…    27 2 [Sec…     5    11 4 [Sec…
##  4  2020 "      000…     2 2 [Esp… 1 [Sí] 1 [Sí] 2 [Muj…    35 3 [Sup…     5    16 5 [Sup…
##  5  2020 "      000…     2 2 [Esp… 1 [Sí] 1 [Sí] 2 [Muj…    35 2 [Sec…     5    11 4 [Sec…
##  6  2020 "      000…     2 2 [Esp… 1 [Sí] 1 [Sí] 2 [Muj…    30 3 [Sup…     3    14 5 [Sup…
##  7  2020 "      000…     2 2 [Esp… 1 [Sí] 1 [Sí] 2 [Muj…    26 3 [Sup…     2    13 5 [Sup…
##  8  2020 "      000…     2 2 [Esp… 1 [Sí] 1 [Sí] 2 [Muj…    34 3 [Sup…     3    14 5 [Sup…
##  9  2020 "      000…     2 2 [Esp… 1 [Sí] 1 [Sí] 2 [Muj…    34 3 [Sup…     3    14 5 [Sup…
## 10  2020 "      000…     2 2 [Esp… 1 [Sí] 1 [Sí] 2 [Muj…    24 2 [Sec…     5    11 4 [Sec…
## # … with 17,232 more rows, and 84 more variables: HV110 <dbl+lbl>, HV111 <dbl+lbl>,
## #   HV112 <dbl+lbl>, HV113 <dbl+lbl>, HV114 <dbl+lbl>, HV115 <dbl+lbl>, HV116 <dbl+lbl>,
## #   HV117 <dbl+lbl>, HV118 <dbl+lbl>, HV120 <dbl+lbl>, HV121 <dbl+lbl>, HV122 <dbl+lbl>,
## #   HV123 <dbl+lbl>, HV124 <dbl+lbl>, HV125 <dbl+lbl>, HV126 <dbl+lbl>, HV127 <dbl+lbl>,
## #   HV128 <dbl+lbl>, HV129 <dbl+lbl>, QH21A <dbl+lbl>, QH25A <chr>, QH25B <dbl+lbl>,
## #   QH25CM <dbl>, QH25CA <dbl>, ID1.y <dbl>, IDX94 <dbl>, S410B <dbl+lbl>,
## #   S411B <dbl+lbl>, S411F <dbl+lbl>, S411G <dbl+lbl>, S411H <dbl+lbl>, …
```
…
---
## Uso de `full_join()`

Invertiremos el orden de nombramiento, simplemente para apreciar otro enfoque. Todos los casos se mantienen en ambas base de datos.

```r
rec94 %>%
  full_join(
    rec1,
    by = c("HHID", "CASEID" = "HVIDX")
  )
```

```
## # A tibble: 141,773 × 96
##    ID1.x HHID   CASEID IDX94 S410B   S411B   S411F   S411G   S411H   S411I   S411J   S411K
##    <dbl> <chr>   <dbl> <dbl> <dbl> <dbl+l> <dbl+l> <dbl+l> <dbl+l> <dbl+l> <dbl+l> <dbl+l>
##  1  2020 "    …      2     1     9 NA      NA      NA      NA      NA      NA      NA     
##  2  2020 "    …      2     1     9 NA      NA      NA      NA      NA      NA      NA     
##  3  2020 "    …      2     1     8 NA      NA      NA      NA      NA      NA      NA     
##  4  2020 "    …      2     1     9 NA      NA      NA      NA      NA      NA      NA     
##  5  2020 "    …      2     1     9 NA      NA      NA      NA      NA      NA      NA     
##  6  2020 "    …      2     1     9 NA      NA      NA      NA      NA      NA      NA     
##  7  2020 "    …      2     1     8 NA      NA      NA      NA      NA      NA      NA     
##  8  2020 "    …      2     1     7  1 [Si]  1 [Si]  1 [Si]  1 [Si]  1 [Si]  1 [Si]  1 [Si]
##  9  2020 "    …      2     2    NA NA      NA      NA      NA      NA      NA      NA     
## 10  2020 "    …      2     1     9  1 [Si]  1 [Si]  1 [Si]  1 [Si]  1 [Si]  1 [Si]  1 [Si]
## # … with 141,763 more rows, and 84 more variables: S411L <dbl+lbl>, S411BA <dbl+lbl>,
## #   S411CA <dbl+lbl>, S411DA <dbl+lbl>, S411EA <dbl+lbl>, S413 <dbl+lbl>,
## #   S422I <dbl+lbl>, S426B <dbl+lbl>, S426E <dbl+lbl>, S426FA <dbl+lbl>,
## #   S426FB <dbl+lbl>, S426GA <dbl+lbl>, S426GB <dbl+lbl>, S426GC <dbl+lbl>,
## #   S426GD <dbl+lbl>, S426GE <dbl+lbl>, S430C <dbl+lbl>, S430D <dbl+lbl>,
## #   S431A <dbl+lbl>, S425A <dbl+lbl>, S432 <dbl+lbl>, S432AD <dbl+lbl>, S432AM <dbl+lbl>,
## #   S432AY <dbl+lbl>, S427DA <dbl+lbl>, S427DB <dbl+lbl>, S427DC <dbl+lbl>, …
```
…
count: false
 
## Uso de rowwise() 
.line-space1-5[.font110[Si quisieramos contabilizar directamente cuantas complicaciones en el embarazo suman por cada mujer entrevistada:]]
.panel1-rowwise_1-user[

```r
*rec94
```
]
 
.panel2-rowwise_1-user[

```
## # A tibble: 17,242 × 62
##      ID1 HHID   CASEID IDX94 S410B   S411B   S411F   S411G   S411H   S411I   S411J   S411K
##    <dbl> <chr>   <dbl> <dbl> <dbl> <dbl+l> <dbl+l> <dbl+l> <dbl+l> <dbl+l> <dbl+l> <dbl+l>
##  1  2020 "    …      2     1     9 NA      NA      NA      NA      NA      NA      NA     
##  2  2020 "    …      2     1     9 NA      NA      NA      NA      NA      NA      NA     
##  3  2020 "    …      2     1     8 NA      NA      NA      NA      NA      NA      NA     
##  4  2020 "    …      2     1     9 NA      NA      NA      NA      NA      NA      NA     
##  5  2020 "    …      2     1     9 NA      NA      NA      NA      NA      NA      NA     
##  6  2020 "    …      2     1     9 NA      NA      NA      NA      NA      NA      NA     
##  7  2020 "    …      2     1     8 NA      NA      NA      NA      NA      NA      NA     
##  8  2020 "    …      2     1     7  1 [Si]  1 [Si]  1 [Si]  1 [Si]  1 [Si]  1 [Si]  1 [Si]
##  9  2020 "    …      2     2    NA NA      NA      NA      NA      NA      NA      NA     
## 10  2020 "    …      2     1     9  1 [Si]  1 [Si]  1 [Si]  1 [Si]  1 [Si]  1 [Si]  1 [Si]
## # … with 17,232 more rows, and 50 more variables: S411L <dbl+lbl>, S411BA <dbl+lbl>,
## #   S411CA <dbl+lbl>, S411DA <dbl+lbl>, S411EA <dbl+lbl>, S413 <dbl+lbl>,
## #   S422I <dbl+lbl>, S426B <dbl+lbl>, S426E <dbl+lbl>, S426FA <dbl+lbl>,
## #   S426FB <dbl+lbl>, S426GA <dbl+lbl>, S426GB <dbl+lbl>, S426GC <dbl+lbl>,
## #   S426GD <dbl+lbl>, S426GE <dbl+lbl>, S430C <dbl+lbl>, S430D <dbl+lbl>,
## #   S431A <dbl+lbl>, S425A <dbl+lbl>, S432 <dbl+lbl>, S432AD <dbl+lbl>, S432AM <dbl+lbl>,
## #   S432AY <dbl+lbl>, S427DA <dbl+lbl>, S427DB <dbl+lbl>, S427DC <dbl+lbl>, …
```
…
## Uso de rowwise() 
.line-space1-5[.font110[Si quisieramos contabilizar directamente cuantas complicaciones en el embarazo suman por cada mujer entrevistada:]]
.panel1-rowwise_1-user[

```r
rec94 %>%
* drop_na(S427DA:S427DG)
```
]
 
.panel2-rowwise_1-user[

```
## # A tibble: 15,122 × 62
##      ID1 HHID   CASEID IDX94 S410B   S411B   S411F   S411G   S411H   S411I   S411J   S411K
##    <dbl> <chr>   <dbl> <dbl> <dbl> <dbl+l> <dbl+l> <dbl+l> <dbl+l> <dbl+l> <dbl+l> <dbl+l>
##  1  2020 "    …      2     1     9 NA      NA      NA      NA      NA      NA      NA     
##  2  2020 "    …      2     1     9 NA      NA      NA      NA      NA      NA      NA     
##  3  2020 "    …      2     1     8 NA      NA      NA      NA      NA      NA      NA     
##  4  2020 "    …      2     1     9 NA      NA      NA      NA      NA      NA      NA     
##  5  2020 "    …      2     1     9 NA      NA      NA      NA      NA      NA      NA     
##  6  2020 "    …      2     1     9 NA      NA      NA      NA      NA      NA      NA     
##  7  2020 "    …      2     1     8 NA      NA      NA      NA      NA      NA      NA     
##  8  2020 "    …      2     1     7  1 [Si]  1 [Si]  1 [Si]  1 [Si]  1 [Si]  1 [Si]  1 [Si]
##  9  2020 "    …      2     1     9  1 [Si]  1 [Si]  1 [Si]  1 [Si]  1 [Si]  1 [Si]  1 [Si]
## 10  2020 "    …      2     1     8  1 [Si]  1 [Si]  1 [Si]  1 [Si]  1 [Si]  1 [Si]  1 [Si]
## # … with 15,112 more rows, and 50 more variables: S411L <dbl+lbl>, S411BA <dbl+lbl>,
## #   S411CA <dbl+lbl>, S411DA <dbl+lbl>, S411EA <dbl+lbl>, S413 <dbl+lbl>,
## #   S422I <dbl+lbl>, S426B <dbl+lbl>, S426E <dbl+lbl>, S426FA <dbl+lbl>,
## #   S426FB <dbl+lbl>, S426GA <dbl+lbl>, S426GB <dbl+lbl>, S426GC <dbl+lbl>,
## #   S426GD <dbl+lbl>, S426GE <dbl+lbl>, S430C <dbl+lbl>, S430D <dbl+lbl>,
## #   S431A <dbl+lbl>, S425A <dbl+lbl>, S432 <dbl+lbl>, S432AD <dbl+lbl>, S432AM <dbl+lbl>,
## #   S432AY <dbl+lbl>, S427DA <dbl+lbl>, S427DB <dbl+lbl>, S427DC <dbl+lbl>, …
```
…
## Uso de rowwise() 
.line-space1-5[.font110[Si quisieramos contabilizar directamente cuantas complicaciones en el embarazo suman por cada mujer entrevistada:]]
.panel1-rowwise_1-user[

```r
rec94 %>%
  drop_na(S427DA:S427DG) %>%
* slice(1:1000)
```
]
 
.panel2-rowwise_1-user[

```
## # A tibble: 1,000 × 62
##      ID1 HHID   CASEID IDX94 S410B   S411B   S411F   S411G   S411H   S411I   S411J   S411K
##    <dbl> <chr>   <dbl> <dbl> <dbl> <dbl+l> <dbl+l> <dbl+l> <dbl+l> <dbl+l> <dbl+l> <dbl+l>
##  1  2020 "    …      2     1     9 NA      NA      NA      NA      NA      NA      NA     
##  2  2020 "    …      2     1     9 NA      NA      NA      NA      NA      NA      NA     
##  3  2020 "    …      2     1     8 NA      NA      NA      NA      NA      NA      NA     
##  4  2020 "    …      2     1     9 NA      NA      NA      NA      NA      NA      NA     
##  5  2020 "    …      2     1     9 NA      NA      NA      NA      NA      NA      NA     
##  6  2020 "    …      2     1     9 NA      NA      NA      NA      NA      NA      NA     
##  7  2020 "    …      2     1     8 NA      NA      NA      NA      NA      NA      NA     
##  8  2020 "    …      2     1     7  1 [Si]  1 [Si]  1 [Si]  1 [Si]  1 [Si]  1 [Si]  1 [Si]
##  9  2020 "    …      2     1     9  1 [Si]  1 [Si]  1 [Si]  1 [Si]  1 [Si]  1 [Si]  1 [Si]
## 10  2020 "    …      2     1     8  1 [Si]  1 [Si]  1 [Si]  1 [Si]  1 [Si]  1 [Si]  1 [Si]
## # … with 990 more rows, and 50 more variables: S411L <dbl+lbl>, S411BA <dbl+lbl>,
## #   S411CA <dbl+lbl>, S411DA <dbl+lbl>, S411EA <dbl+lbl>, S413 <dbl+lbl>,
## #   S422I <dbl+lbl>, S426B <dbl+lbl>, S426E <dbl+lbl>, S426FA <dbl+lbl>,
## #   S426FB <dbl+lbl>, S426GA <dbl+lbl>, S426GB <dbl+lbl>, S426GC <dbl+lbl>,
## #   S426GD <dbl+lbl>, S426GE <dbl+lbl>, S430C <dbl+lbl>, S430D <dbl+lbl>,
## #   S431A <dbl+lbl>, S425A <dbl+lbl>, S432 <dbl+lbl>, S432AD <dbl+lbl>, S432AM <dbl+lbl>,
## #   S432AY <dbl+lbl>, S427DA <dbl+lbl>, S427DB <dbl+lbl>, S427DC <dbl+lbl>, …
```
…
```r
rec94 %>%
  drop_na(S427DA:S427DG) %>%
  slice(1:1000) %>%
* rowwise()
```
]
 
.panel2-rowwise_1-user[

```
## # A tibble: 1,000 × 62
## # Rowwise: 
##      ID1 HHID   CASEID IDX94 S410B   S411B   S411F   S411G   S411H   S411I   S411J   S411K
##    <dbl> <chr>   <dbl> <dbl> <dbl> <dbl+l> <dbl+l> <dbl+l> <dbl+l> <dbl+l> <dbl+l> <dbl+l>
##  1  2020 "    …      2     1     9 NA      NA      NA      NA      NA      NA      NA     
##  2  2020 "    …      2     1     9 NA      NA      NA      NA      NA      NA      NA     
##  3  2020 "    …      2     1     8 NA      NA      NA      NA      NA      NA      NA     
##  4  2020 "    …      2     1     9 NA      NA      NA      NA      NA      NA      NA     
##  5  2020 "    …      2     1     9 NA      NA      NA      NA      NA      NA      NA     
##  6  2020 "    …      2     1     9 NA      NA      NA      NA      NA      NA      NA     
##  7  2020 "    …      2     1     8 NA      NA      NA      NA      NA      NA      NA     
##  8  2020 "    …      2     1     7  1 [Si]  1 [Si]  1 [Si]  1 [Si]  1 [Si]  1 [Si]  1 [Si]
##  9  2020 "    …      2     1     9  1 [Si]  1 [Si]  1 [Si]  1 [Si]  1 [Si]  1 [Si]  1 [Si]
## 10  2020 "    …      2     1     8  1 [Si]  1 [Si]  1 [Si]  1 [Si]  1 [Si]  1 [Si]  1 [Si]
## # … with 990 more rows, and 50 more variables: S411L <dbl+lbl>, S411BA <dbl+lbl>,
## #   S411CA <dbl+lbl>, S411DA <dbl+lbl>, S411EA <dbl+lbl>, S413 <dbl+lbl>,
## #   S422I <dbl+lbl>, S426B <dbl+lbl>, S426E <dbl+lbl>, S426FA <dbl+lbl>,
## #   S426FB <dbl+lbl>, S426GA <dbl+lbl>, S426GB <dbl+lbl>, S426GC <dbl+lbl>,
## #   S426GD <dbl+lbl>, S426GE <dbl+lbl>, S430C <dbl+lbl>, S430D <dbl+lbl>,
## #   S431A <dbl+lbl>, S425A <dbl+lbl>, S432 <dbl+lbl>, S432AD <dbl+lbl>, S432AM <dbl+lbl>,
## #   S432AY <dbl+lbl>, S427DA <dbl+lbl>, S427DB <dbl+lbl>, S427DC <dbl+lbl>, …
```
…
