Introducción a R y Tidyverse
…
.panel[.panel-name[Ejemplo]

.pull-left[
Así habitualmente observamos la data:
.scroll-output350[

```r
nycflights13::flights
```

```
## # A tibble: 336,776 × 19
##     year month   day dep_time sched_dep_time
##    <int> <int> <int>    <int>          <int>
##  1  2013     1     1      517            515
##  2  2013     1     1      533            529
##  3  2013     1     1      542            540
##  4  2013     1     1      544            545
##  5  2013     1     1      554            600
##  6  2013     1     1      554            558
##  7  2013     1     1      555            600
##  8  2013     1     1      557            600
##  9  2013     1     1      557            600
## 10  2013     1     1      558            600
## # … with 336,766 more rows, and 14 more
## #   variables: dep_delay <dbl>, arr_time <int>,
## #   sched_arr_time <int>, arr_delay <dbl>,
## #   carrier <chr>, flight <int>, tailnum <chr>,
## #   origin <chr>, dest <chr>, air_time <dbl>,
## #   distance <dbl>, hour <dbl>, minute <dbl>,
## #   time_hour <dttm>
```
…
.panelset[
.panel[.panel-name[Reconocimiento de BD]

Para esta ejemplificación usaremos la base de datos del ECA  sobre la [erradicación de la infección por *Helicobácter Pylori*](https://www.nature.com/articles/s41598-018-27482-2) explicado en la [sesión 02](https://healthinnovation.github.io/curso-introduccion-r-tidyverse/Sesi%C3%B3n%2002/?panelset1=situaci%25C3%25B3n2#14).

.pull-left[
.scroll-output350[

```r
trial_data <- readxl::read_excel("data/researchdata.xlsx")
trial_data
```

```
## # A tibble: 400 × 10
##    `Patient number` `Baseline 13C-UBT`
##               <dbl> <chr>             
##  1                1 Positive          
##  2                2 Positive          
##  3                3 Positive          
##  4                4 Positive          
##  5                5 Positive          
##  6                6 Positive          
##  7                7 Positive          
##  8                8 Positive          
##  9                9 Positive          
## 10               10 Positive          
## # … with 390 more rows, and 8 more
## #   variables: `Randomized group` <chr>,
## #   `Follow-up13C-UBT (4 weeks after therapy)` <chr>,
## #   `adverse drug reactions` <chr>,
## #   `adverse drug reactions  content` <chr>,
## #   `Adverse drug reaction classified` <chr>,
## #   `Complete the study` <chr>, …
```
…
.panel[.panel-name[Janitor]

En algunas ocasiones las base de datos contienen nombres de variables muy largas o que incluso pueden contener espacios o símbolos. Una forma sencilla de solucionar ello es mediante el uso de la función `clean_names()` del paquete `janitor`.

.scroll-output300[

```r
trial_data <- trial_data %>% 
  janitor::clean_names()
trial_data
```

```
## # A tibble: 400 × 10
##    patient_number baseline_13c_ubt randomized_group follow_up13c_ubt_4_w… adverse_drug_re…
##             <dbl> <chr>            <chr>            <chr>                 <chr>           
##  1              1 Positive         group B          Negative              No              
##  2              2 Positive         group A          Negative              Yes             
##  3              3 Positive         group B          Negative              No              
##  4              4 Positive         group A          Positive              Yes             
##  5              5 Positive         group A          Negative              Yes             
##  6              6 Positive         group A          Negative              No              
##  7              7 Positive         group B          Negative              No              
##  8              8 Positive         group A          Negative              No              
##  9              9 Positive         group A          Negative              No              
## 10             10 Positive         group A          NA                    NA              
## # … with 390 more rows, and 5 more variables: adverse_drug_reactions_content <chr>,
## #   adverse_drug_reaction_classified <chr>, complete_the_study <chr>,
## #   uncompleted_reason <chr>, per_protocol_analysis <chr>
```
…
.pull-right[
1. Configurar la variable `ID`

.scroll-output325[.code80[

```r
trial_data %>% 
  mutate(
    patient_number = as.character(patient_number)
  )
```

```
## # A tibble: 400 × 10
##    patient_number baseline_13c_ubt
##    <chr>          <chr>           
##  1 1              Positive        
##  2 2              Positive        
##  3 3              Positive        
##  4 4              Positive        
##  5 5              Positive        
##  6 6              Positive        
##  7 7              Positive        
##  8 8              Positive        
##  9 9              Positive        
## 10 10             Positive        
## # … with 390 more rows, and 8 more
## #   variables: randomized_group <chr>,
## #   follow_up13c_ubt_4_weeks_after_therapy <chr>,
## #   adverse_drug_reactions <chr>,
## #   adverse_drug_reactions_content <chr>,
## #   adverse_drug_reaction_classified <chr>,
## #   complete_the_study <chr>, …
```
…
.scroll-output325[.code80[

```r
trial_data %>% 
  mutate(
    randomized_group = factor(randomized_group),
    complete_the_study = factor(complete_the_study)
  )
```

```
## # A tibble: 400 × 10
##    patient_number baseline_13c_ubt
##             <dbl> <chr>           
##  1              1 Positive        
##  2              2 Positive        
##  3              3 Positive        
##  4              4 Positive        
##  5              5 Positive        
##  6              6 Positive        
##  7              7 Positive        
##  8              8 Positive        
##  9              9 Positive        
## 10             10 Positive        
## # … with 390 more rows, and 8 more
## #   variables: randomized_group <fct>,
## #   follow_up13c_ubt_4_weeks_after_therapy <chr>,
## #   adverse_drug_reactions <chr>,
## #   adverse_drug_reactions_content <chr>,
## #   adverse_drug_reaction_classified <chr>,
## #   complete_the_study <fct>, …
```
…
