Capítulo 3 Sesión 02 | Introducción a R y Tidyverse
…
# data.frame
head(iris) # Muestra las 6 primeras filas del data.frame
#>   Sepal.Length Sepal.Width Petal.Length Petal.Width Species
#> 1          5.1         3.5          1.4         0.2  setosa
#> 2          4.9         3.0          1.4         0.2  setosa
#> 3          4.7         3.2          1.3         0.2  setosa
#> 4          4.6         3.1          1.5         0.2  setosa
#> 5          5.0         3.6          1.4         0.2  setosa
#> 6          5.4         3.9          1.7         0.4  setosa

# tibble
as_tibble(iris)
#> # A tibble: 150 × 5
#>    Sepal.Length Sepal.Width Petal.Length Petal.Width Species
#>           <dbl>       <dbl>        <dbl>       <dbl> <fct>  
#>  1          5.1         3.5          1.4         0.2 setosa 
#>  2          4.9         3            1.4         0.2 setosa 
#>  3          4.7         3.2          1.3         0.2 setosa 
#>  4          4.6         3.1          1.5         0.2 setosa 
#>  5          5           3.6          1.4         0.2 setosa 
#>  6          5.4         3.9          1.7         0.4 setosa 
#>  7          4.6         3.4          1.4         0.3 setosa 
#>  8          5           3.4          1.5         0.2 setosa 
#>  9          4.4         2.9          1.4         0.2 setosa 
#> 10          4.9         3.1          1.5         0.1 setosa 
#> # … with 140 more rows
…
Recuerda: Al importar el archivo debemos asignarlo a un objeto, para poder guardar la información. En este caso llamaremos a este objeto como trial_data.

#> ── Attaching packages ────────────────────────────────────────────────────────────────────────── tidyverse 1.3.1 ──
#> ✔ ggplot2 3.3.6     ✔ dplyr   1.0.9
#> ✔ tidyr   1.2.0     ✔ stringr 1.4.0
#> ✔ readr   2.1.2     ✔ forcats 0.5.1
#> ✔ purrr   0.3.4
#> ── Conflicts ───────────────────────────────────────────────────────────────────────────── tidyverse_conflicts() ──
#> ✖ dplyr::filter() masks stats::filter()
#> ✖ dplyr::lag()    masks stats::lag()

trial_data <- readxl::read_excel("_data/researchdata.xlsx")
trial_data
#> # A tibble: 400 × 10
#>    `Patient number` `Baseline 13C-UBT` `Randomized group`
#>               <dbl> <chr>              <chr>             
#>  1                1 Positive           group B           
#>  2                2 Positive           group A           
#>  3                3 Positive           group B           
#>  4                4 Positive           group A           
#>  5                5 Positive           group A           
#>  6                6 Positive           group A           
#>  7                7 Positive           group B           
#>  8                8 Positive           group A           
#>  9                9 Positive           group A           
#> 10               10 Positive           group A           
#> # … with 390 more rows, and 7 more variables:
#> #   `Follow-up13C-UBT (4 weeks after therapy)` <chr>,
#> #   `adverse drug reactions` <chr>,
#> #   `adverse drug reactions  content` <chr>,
#> #   `Adverse drug reaction classified` <chr>,
#> #   `Complete the study` <chr>, `Uncompleted Reason` <chr>,
#> #   `per protocol analysis` <chr>
…
Si intentamos importar la data sin especificar ningún argumento, veremos como se registran informaciones que no requerimos, y solo se encuentran en los datos a manera de información.

trial_data2 <- readxl::read_excel("_data/researchdata2.xlsx")
#> New names:
#> • `` -> `...1`
#> • `` -> `...3`
#> • `` -> `...4`
#> • `` -> `...5`
#> • `` -> `...6`
#> • `` -> `...7`
#> • `` -> `...8`
#> • `` -> `...9`
#> • `` -> `...10`
trial_data2
#> # A tibble: 403 × 10
#>    ...1       `Data de ejemp…` ...3  ...4  ...5  ...6  ...7 
#>    <chr>      <chr>            <chr> <chr> <chr> <chr> <chr>
#>  1 <NA>       <NA>             <NA>  <NA>  <NA>  <NA>  <NA> 
#>  2 <NA>       <NA>             <NA>  <NA>  <NA>  <NA>  <NA> 
#>  3 Patient n… Baseline 13C-UBT Rand… Foll… adve… adve… Adve…
#>  4 1          Positive         grou… Nega… No    NA    NA   
#>  5 2          Positive         grou… Nega… Yes   Fati… Mild 
#>  6 3          Positive         grou… Nega… No    NA    NA   
#>  7 4          Positive         grou… Posi… Yes   Abdo… Mild 
#>  8 5          Positive         grou… Nega… Yes   Drow… Mild 
#>  9 6          Positive         grou… Nega… No    NA    NA   
#> 10 7          Positive         grou… Nega… No    NA    NA   
#> # … with 393 more rows, and 3 more variables: ...8 <chr>,
#> #   ...9 <chr>, ...10 <chr>

3.0.12.3 Solución

Ya que en este caso la base de datos llamada researchdata2.xlsx empieza a mostrar datos relevantes a partir de la fila 4, requeriremos omitir o saltar (skip) 3 filas, se la siguiente manera:

trial_data2 <- readxl::read_excel(
  "_data/researchdata2.xlsx",
  skip = 3
  )

trial_data2
#> # A tibble: 400 × 10
#>    `Patient number` `Baseline 13C-UBT` `Randomized group`
#>               <dbl> <chr>              <chr>             
#>  1                1 Positive           group B           
#>  2                2 Positive           group A           
#>  3                3 Positive           group B           
#>  4                4 Positive           group A           
#>  5                5 Positive           group A           
#>  6                6 Positive           group A           
#>  7                7 Positive           group B           
#>  8                8 Positive           group A           
#>  9                9 Positive           group A           
#> 10               10 Positive           group A           
#> # … with 390 more rows, and 7 more variables:
#> #   `Follow-up13C-UBT (4 weeks after therapy)` <chr>,
#> #   `adverse drug reactions` <chr>,
#> #   `adverse drug reactions  content` <chr>,
#> #   `Adverse drug reaction classified` <chr>,
#> #   `Complete the study` <chr>, `Uncompleted Reason` <chr>,
#> #   `per protocol analysis` <chr>
…
