Capítulo 4 Sesión 03 | Introducción a R y Tidyverse
…
Para el ejemplo se recomienda installar el siguiente paquete:

install.packages("nycflights13")

4.0.1.2 Ejemplo

Así habitualmente observamos la data:

nycflights13::flights
#> # A tibble: 336,776 × 19
#>     year month   day dep_time sched_dep_time dep_delay
#>    <int> <int> <int>    <int>          <int>     <dbl>
#>  1  2013     1     1      517            515         2
#>  2  2013     1     1      533            529         4
#>  3  2013     1     1      542            540         2
#>  4  2013     1     1      544            545        -1
#>  5  2013     1     1      554            600        -6
#>  6  2013     1     1      554            558        -4
#>  7  2013     1     1      555            600        -5
#>  8  2013     1     1      557            600        -3
#>  9  2013     1     1      557            600        -3
#> 10  2013     1     1      558            600        -2
#> # … with 336,766 more rows, and 13 more variables:
#> #   arr_time <int>, sched_arr_time <int>, arr_delay <dbl>,
#> #   carrier <chr>, flight <int>, tailnum <chr>,
#> #   origin <chr>, dest <chr>, air_time <dbl>,
#> #   distance <dbl>, hour <dbl>, minute <dbl>,
#> #   time_hour <dttm>
…
Explicación:

En una data llamada df se estaría aplicando la función mutate creando una variable llamada New_var a partir de otra variable llamada var que está siendo multiplicada por 2.

4.1 Uso práctico de mutate()

4.1.1 Reconocimiento de Base de datos

Para esta ejemplificación usaremos la base de datos del ECA sobre la erradicación de la infección por Helicobácter Pylori explicado en la sesión 02.

trial_data <- readxl::read_excel("_data/researchdata.xlsx")
trial_data
#> # A tibble: 400 × 10
#>    `Patient number` `Baseline 13C-UBT` `Randomized group`
#>               <dbl> <chr>              <chr>             
#>  1                1 Positive           group B           
#>  2                2 Positive           group A           
#>  3                3 Positive           group B           
#>  4                4 Positive           group A           
#>  5                5 Positive           group A           
#>  6                6 Positive           group A           
#>  7                7 Positive           group B           
#>  8                8 Positive           group A           
#>  9                9 Positive           group A           
#> 10               10 Positive           group A           
#> # … with 390 more rows, and 7 more variables:
#> #   `Follow-up13C-UBT (4 weeks after therapy)` <chr>,
#> #   `adverse drug reactions` <chr>,
#> #   `adverse drug reactions  content` <chr>,
#> #   `Adverse drug reaction classified` <chr>,
#> #   `Complete the study` <chr>, `Uncompleted Reason` <chr>,
#> #   `per protocol analysis` <chr>
…
4.1.2 Janitor

En algunas ocasiones las base de datos contienen nombres de variables muy largas o que incluso pueden contener espacios o símbolos. Una forma sencilla de solucionar ello es mediante el uso de la función clean_names() del paquete janitor.

Observación:
- Para instalar el paquete janitor,empleamos la siguiente función:

install.packages("janitor")

trial_data <- trial_data %>% 
  janitor::clean_names() 
trial_data
#> # A tibble: 400 × 10
#>    patient_number baseline_13c_ubt randomized_group
#>             <dbl> <chr>            <chr>           
#>  1              1 Positive         group B         
#>  2              2 Positive         group A         
#>  3              3 Positive         group B         
#>  4              4 Positive         group A         
#>  5              5 Positive         group A         
#>  6              6 Positive         group A         
#>  7              7 Positive         group B         
#>  8              8 Positive         group A         
#>  9              9 Positive         group A         
#> 10             10 Positive         group A         
#> # … with 390 more rows, and 7 more variables:
#> #   follow_up13c_ubt_4_weeks_after_therapy <chr>,
#> #   adverse_drug_reactions <chr>,
#> #   adverse_drug_reactions_content <chr>,
#> #   adverse_drug_reaction_classified <chr>,
#> #   complete_the_study <chr>, uncompleted_reason <chr>,
#> #   per_protocol_analysis <chr>

4.1.3 Rename

A pesar de que janitor::clean_names() nos proporciona una gran solución para el formateo de nombres de variables que tienen espacios y/o símbolos, a veces podría ser necesario modificar específicamente el nombre de algunas variables. Para ello usaremos la función rename de la siguiente manera:

trial_data <- trial_data %>% 
  rename(
    follow_4_weeks = follow_up13c_ubt_4_weeks_after_therapy
  )
trial_data
#> # A tibble: 400 × 10
#>    patient_number baseline_13c_ubt randomized_group
#>             <dbl> <chr>            <chr>           
#>  1              1 Positive         group B         
#>  2              2 Positive         group A         
#>  3              3 Positive         group B         
#>  4              4 Positive         group A         
#>  5              5 Positive         group A         
#>  6              6 Positive         group A         
#>  7              7 Positive         group B         
#>  8              8 Positive         group A         
#>  9              9 Positive         group A         
#> 10             10 Positive         group A         
#> # … with 390 more rows, and 7 more variables:
#> #   follow_4_weeks <chr>, adverse_drug_reactions <chr>,
#> #   adverse_drug_reactions_content <chr>,
#> #   adverse_drug_reaction_classified <chr>,
#> #   complete_the_study <chr>, uncompleted_reason <chr>,
#> #   per_protocol_analysis <chr>
…
Una de las primeras cosas que podemos hacer con mutate durante el primer contacto con la data que trabajemos es:

Configurar variables ID como texto (character).

Configurar variables como factores.

Configurar respuestas NA en caso tengan alguna otra codificación.

Configurar la variable ID

trial_data %>% 
  mutate(
    patient_number = as.character(patient_number)
  )
#> # A tibble: 400 × 10
#>    patient_number baseline_13c_ubt randomized_group
#>    <chr>          <chr>            <chr>           
#>  1 1              Positive         group B         
#>  2 2              Positive         group A         
#>  3 3              Positive         group B         
#>  4 4              Positive         group A         
#>  5 5              Positive         group A         
#>  6 6              Positive         group A         
#>  7 7              Positive         group B         
#>  8 8              Positive         group A         
#>  9 9              Positive         group A         
#> 10 10             Positive         group A         
#> # … with 390 more rows, and 7 more variables:
#> #   follow_4_weeks <chr>, adverse_drug_reactions <chr>,
#> #   adverse_drug_reactions_content <chr>,
#> #   adverse_drug_reaction_classified <chr>,
#> #   complete_the_study <chr>, uncompleted_reason <chr>,
#> #   per_protocol_analysis <chr>

4.1.5 Mutate II

Configurar factores

trial_data %>% 
  mutate(
    randomized_group = factor(randomized_group),
    complete_the_study = factor(complete_the_study)
  )
#> # A tibble: 400 × 10
#>    patient_number baseline_13c_ubt randomized_group
#>             <dbl> <chr>            <fct>           
#>  1              1 Positive         group B         
#>  2              2 Positive         group A         
#>  3              3 Positive         group B         
#>  4              4 Positive         group A         
#>  5              5 Positive         group A         
#>  6              6 Positive         group A         
#>  7              7 Positive         group B         
#>  8              8 Positive         group A         
#>  9              9 Positive         group A         
#> 10             10 Positive         group A         
#> # … with 390 more rows, and 7 more variables:
#> #   follow_4_weeks <chr>, adverse_drug_reactions <chr>,
#> #   adverse_drug_reactions_content <chr>,
#> #   adverse_drug_reaction_classified <chr>,
#> #   complete_the_study <fct>, uncompleted_reason <chr>,
#> #   per_protocol_analysis <chr>
…
La función read_csv del paquete readr (se carga automáticamente cuando se realiza library(tidyverse)), permite importar archivos csv (data) incluso cuando el archivo está en una web.

covid19 <- read_csv("https://raw.githubusercontent.com/CSSEGISandData/COVID-19/master/csse_covid_19_data/csse_covid_19_time_series/time_series_covid19_deaths_global.csv")
#> Rows: 285 Columns: 859
#> ── Column specification ───────────────────────────────────────────────────────────────────────────────────────────
#> Delimiter: ","
#> chr   (2): Province/State, Country/Region
#> dbl (857): Lat, Long, 1/22/20, 1/23/20, 1/24/20, 1/25/20...
#> 
#> ℹ Use `spec()` to retrieve the full column specification for this data.
#> ℹ Specify the column types or set `show_col_types = FALSE` to quiet this message.
covid19
#> # A tibble: 285 × 859
#>    `Province/State`  `Country/Region`   Lat   Long `1/22/20`
#>    <chr>             <chr>            <dbl>  <dbl>     <dbl>
#>  1 <NA>              Afghanistan       33.9  67.7          0
#>  2 <NA>              Albania           41.2  20.2          0
#>  3 <NA>              Algeria           28.0   1.66         0
#>  4 <NA>              Andorra           42.5   1.52         0
#>  5 <NA>              Angola           -11.2  17.9          0
#>  6 <NA>              Antarctica       -71.9  23.3          0
#>  7 <NA>              Antigua and Bar…  17.1 -61.8          0
#>  8 <NA>              Argentina        -38.4 -63.6          0
#>  9 <NA>              Armenia           40.1  45.0          0
#> 10 Australian Capit… Australia        -35.5 149.           0
#> # … with 275 more rows, and 854 more variables:
#> #   `1/23/20` <dbl>, `1/24/20` <dbl>, `1/25/20` <dbl>,
#> #   `1/26/20` <dbl>, `1/27/20` <dbl>, `1/28/20` <dbl>,
#> #   `1/29/20` <dbl>, `1/30/20` <dbl>, `1/31/20` <dbl>,
#> #   `2/1/20` <dbl>, `2/2/20` <dbl>, `2/3/20` <dbl>,
#> #   `2/4/20` <dbl>, `2/5/20` <dbl>, `2/6/20` <dbl>,
#> #   `2/7/20` <dbl>, `2/8/20` <dbl>, `2/9/20` <dbl>, …
…
4.1.14 Uso de pivot_wider()

De forma análoga, la función pivot_wider() hará exactamente lo contrario, pasar de una data que se encuentre ordenada (tidy data), a una data ancha. Para esta función se tendrá que indicar los argumentos: names_from y values_from.

covid19_tidy %>%
  pivot_wider(
    names_from = "fecha",
    values_from = "fallecidos"
  )
#> # A tibble: 285 × 857
#>    `Province/State`     `Country/Region` `1/22/20` `1/23/20`
#>    <chr>                <chr>                <dbl>     <dbl>
#>  1 <NA>                 Afghanistan              0         0
#>  2 <NA>                 Albania                  0         0
#>  3 <NA>                 Algeria                  0         0
#>  4 <NA>                 Andorra                  0         0
#>  5 <NA>                 Angola                   0         0
#>  6 <NA>                 Antarctica               0         0
#>  7 <NA>                 Antigua and Bar…         0         0
#>  8 <NA>                 Argentina                0         0
#>  9 <NA>                 Armenia                  0         0
#> 10 Australian Capital … Australia                0         0
#> # … with 275 more rows, and 853 more variables:
#> #   `1/24/20` <dbl>, `1/25/20` <dbl>, `1/26/20` <dbl>,
#> #   `1/27/20` <dbl>, `1/28/20` <dbl>, `1/29/20` <dbl>,
#> #   `1/30/20` <dbl>, `1/31/20` <dbl>, `2/1/20` <dbl>,
#> #   `2/2/20` <dbl>, `2/3/20` <dbl>, `2/4/20` <dbl>,
#> #   `2/5/20` <dbl>, `2/6/20` <dbl>, `2/7/20` <dbl>,
#> #   `2/8/20` <dbl>, `2/9/20` <dbl>, `2/10/20` <dbl>, …
…
