Introducción a R y Tidyverse I
…
.pull-right[.scroll-output400[

```r
as_tibble(iris)
```

```
## # A tibble: 150 × 5
##    Sepal.Length Sepal.…¹ Petal…² Petal…³
##           <dbl>    <dbl>   <dbl>   <dbl>
##  1          5.1      3.5     1.4     0.2
##  2          4.9      3       1.4     0.2
##  3          4.7      3.2     1.3     0.2
##  4          4.6      3.1     1.5     0.2
##  5          5        3.6     1.4     0.2
##  6          5.4      3.9     1.7     0.4
##  7          4.6      3.4     1.4     0.3
##  8          5        3.4     1.5     0.2
##  9          4.4      2.9     1.4     0.2
## 10          4.9      3.1     1.5     0.1
## # … with 140 more rows, 1 more
## #   variable: Species <fct>, and
## #   abbreviated variable names
## #   ¹​Sepal.Width, ²​Petal.Length,
## #   ³​Petal.Width
## # ℹ Use `print(n = ...)` to see more rows, and `colnames()` to see all variable names
```
…
