Introducción a R y Tidyverse I
…
Vamos a importar el archivo excel que tiene una extensión `.xlsx` y se encuentra dentro de la carpeta `data`. 

**Recuerda**: Al importar el archivo debemos asignarlo a un objeto, para poder guardar la información. En este caso llamaremos a este objeto como `trial_data`.

.scroll-output325[

```r
trial_data <- readxl::read_excel("data/researchdata.xlsx")

trial_data
```

```
## # A tibble: 400 × 10
##    Patient numbe…¹ Basel…² Rando…³ Follo…⁴ adver…⁵ adver…⁶ Adver…⁷ Compl…⁸ Uncom…⁹ per p…˟
##              <dbl> <chr>   <chr>   <chr>   <chr>   <chr>   <chr>   <chr>   <chr>   <chr>  
##  1               1 Positi… group B Negati… No      NA      NA      Yes     NA      Yes    
##  2               2 Positi… group A Negati… Yes     Fatigue Mild    Yes     NA      Yes    
##  3               3 Positi… group B Negati… No      NA      NA      Yes     NA      Yes    
##  4               4 Positi… group A Positi… Yes     Abdomi… Mild    Yes     NA      Yes    
##  5               5 Positi… group A Negati… Yes     Drowsi… Mild    Yes     NA      Yes    
##  6               6 Positi… group A Negati… No      NA      NA      Yes     NA      Yes    
##  7               7 Positi… group B Negati… No      NA      NA      Yes     NA      Yes    
##  8               8 Positi… group A Negati… No      NA      NA      Yes     NA      Yes    
##  9               9 Positi… group A Negati… No      NA      NA      Yes     NA      Yes    
## 10              10 Positi… group A NA      NA      NA      NA      No      lost t… No     
## # … with 390 more rows, and abbreviated variable names ¹​`Patient number`,
## #   ²​`Baseline 13C-UBT`, ³​`Randomized group`,
## #   ⁴​`Follow-up13C-UBT (4 weeks after therapy)`, ⁵​`adverse drug reactions`,
## #   ⁶​`adverse drug reactions  content`, ⁷​`Adverse drug reaction classified`,
## #   ⁸​`Complete the study`, ⁹​`Uncompleted Reason`, ˟​`per protocol analysis`
```
…
.panel[.panel-name[Problema]

Si intentamos importar la data sin especificar ningún argumento, veremos como se registran informaciones que no requerimos, y solo se encuentran en los datos a manera de información.

.scroll-output325[

```r
trial_data2 <- readxl::read_excel("data/researchdata2.xlsx")

trial_data2
```

```
## # A tibble: 403 × 10
##    ...1           Data de ejemplo para e…¹ ...3  ...4  ...5  ...6  ...7  ...8  ...9  ...10
##    <chr>          <chr>                    <chr> <chr> <chr> <chr> <chr> <chr> <chr> <chr>
##  1 <NA>           <NA>                     <NA>  <NA>  <NA>  <NA>  <NA>  <NA>  <NA>  <NA> 
##  2 <NA>           <NA>                     <NA>  <NA>  <NA>  <NA>  <NA>  <NA>  <NA>  <NA> 
##  3 Patient number Baseline 13C-UBT         Rand… Foll… adve… adve… Adve… Comp… Unco… per …
##  4 1              Positive                 grou… Nega… No    NA    NA    Yes   NA    Yes  
##  5 2              Positive                 grou… Nega… Yes   Fati… Mild  Yes   NA    Yes  
##  6 3              Positive                 grou… Nega… No    NA    NA    Yes   NA    Yes  
##  7 4              Positive                 grou… Posi… Yes   Abdo… Mild  Yes   NA    Yes  
##  8 5              Positive                 grou… Nega… Yes   Drow… Mild  Yes   NA    Yes  
##  9 6              Positive                 grou… Nega… No    NA    NA    Yes   NA    Yes  
## 10 7              Positive                 grou… Nega… No    NA    NA    Yes   NA    Yes  
## # … with 393 more rows, and abbreviated variable name ¹​`Data de ejemplo para el curso`
```
…
.panel[.panel-name[Solución]
Ya que en este caso la base de datos llamada `researchdata2.xlsx` empieza a mostrar datos relevantes a partir de la fila 4, requeriremos omitir o saltar (`skip`) 3 filas, se la siguiente manera:

.scroll-output325[

```r
trial_data2 <- readxl::read_excel("data/researchdata2.xlsx",
                                  skip = 3)

trial_data2
```

```
## # A tibble: 400 × 10
##    Patient numbe…¹ Basel…² Rando…³ Follo…⁴ adver…⁵ adver…⁶ Adver…⁷ Compl…⁸ Uncom…⁹ per p…˟
##              <dbl> <chr>   <chr>   <chr>   <chr>   <chr>   <chr>   <chr>   <chr>   <chr>  
##  1               1 Positi… group B Negati… No      NA      NA      Yes     NA      Yes    
##  2               2 Positi… group A Negati… Yes     Fatigue Mild    Yes     NA      Yes    
##  3               3 Positi… group B Negati… No      NA      NA      Yes     NA      Yes    
##  4               4 Positi… group A Positi… Yes     Abdomi… Mild    Yes     NA      Yes    
##  5               5 Positi… group A Negati… Yes     Drowsi… Mild    Yes     NA      Yes    
##  6               6 Positi… group A Negati… No      NA      NA      Yes     NA      Yes    
##  7               7 Positi… group B Negati… No      NA      NA      Yes     NA      Yes    
##  8               8 Positi… group A Negati… No      NA      NA      Yes     NA      Yes    
##  9               9 Positi… group A Negati… No      NA      NA      Yes     NA      Yes    
## 10              10 Positi… group A NA      NA      NA      NA      No      lost t… No     
## # … with 390 more rows, and abbreviated variable names ¹​`Patient number`,
## #   ²​`Baseline 13C-UBT`, ³​`Randomized group`,
## #   ⁴​`Follow-up13C-UBT (4 weeks after therapy)`, ⁵​`adverse drug reactions`,
## #   ⁶​`adverse drug reactions  content`, ⁷​`Adverse drug reaction classified`,
## #   ⁸​`Complete the study`, ⁹​`Uncompleted Reason`, ˟​`per protocol analysis`
```
…
.panel[.panel-name[Ejemplo]

.pull-left[
Así habitualmente observamos la data:
.scroll-output350[

```r
nycflights13::flights
```

```
## # A tibble: 336,776 × 19
##     year month   day dep_time sched_dep_…¹ dep_d…²
##    <int> <int> <int>    <int>        <int>   <dbl>
##  1  2013     1     1      517          515       2
##  2  2013     1     1      533          529       4
##  3  2013     1     1      542          540       2
##  4  2013     1     1      544          545      -1
##  5  2013     1     1      554          600      -6
##  6  2013     1     1      554          558      -4
##  7  2013     1     1      555          600      -5
##  8  2013     1     1      557          600      -3
##  9  2013     1     1      557          600      -3
## 10  2013     1     1      558          600      -2
## # … with 336,766 more rows, 13 more variables:
## #   arr_time <int>, sched_arr_time <int>,
## #   arr_delay <dbl>, carrier <chr>, flight <int>,
## #   tailnum <chr>, origin <chr>, dest <chr>,
## #   air_time <dbl>, distance <dbl>, hour <dbl>,
## #   minute <dbl>, time_hour <dttm>, and
## #   abbreviated variable names ¹​sched_dep_time, …
```
…
.panelset[
.panel[.panel-name[Reconocimiento de BD]

Para esta ejemplificación continuaremos usando la base de datos del ECA  sobre la [erradicación de la infección por *Helicobácter Pylori*](https://www.nature.com/articles/s41598-018-27482-2).

.pull-left[
.scroll-output350[

```r
trial_data <- readxl::read_excel("data/researchdata.xlsx")
trial_data
```

```
## # A tibble: 400 × 10
##    Patient …¹ Basel…² Rando…³ Follo…⁴ adver…⁵
##         <dbl> <chr>   <chr>   <chr>   <chr>  
##  1          1 Positi… group B Negati… No     
##  2          2 Positi… group A Negati… Yes    
##  3          3 Positi… group B Negati… No     
##  4          4 Positi… group A Positi… Yes    
##  5          5 Positi… group A Negati… Yes    
##  6          6 Positi… group A Negati… No     
##  7          7 Positi… group B Negati… No     
##  8          8 Positi… group A Negati… No     
##  9          9 Positi… group A Negati… No     
## 10         10 Positi… group A NA      NA     
## # … with 390 more rows, 5 more variables:
## #   `adverse drug reactions  content` <chr>,
## #   `Adverse drug reaction classified` <chr>,
## #   `Complete the study` <chr>,
## #   `Uncompleted Reason` <chr>,
## #   `per protocol analysis` <chr>, and
## #   abbreviated variable names …
```
…
.panel[.panel-name[Janitor]

En algunas ocasiones las base de datos contienen nombres de variables muy largas o que incluso pueden contener espacios o símbolos. Una forma sencilla de solucionar ello es mediante el uso de la función `clean_names()` del paquete `janitor`.

.scroll-output300[

```r
trial_data <- trial_data %>% 
  janitor::clean_names() 
trial_data
```

```
## # A tibble: 400 × 10
##    patient_number baseli…¹ rando…² follo…³ adver…⁴ adver…⁵ adver…⁶ compl…⁷ uncom…⁸ per_p…⁹
##             <dbl> <chr>    <chr>   <chr>   <chr>   <chr>   <chr>   <chr>   <chr>   <chr>  
##  1              1 Positive group B Negati… No      NA      NA      Yes     NA      Yes    
##  2              2 Positive group A Negati… Yes     Fatigue Mild    Yes     NA      Yes    
##  3              3 Positive group B Negati… No      NA      NA      Yes     NA      Yes    
##  4              4 Positive group A Positi… Yes     Abdomi… Mild    Yes     NA      Yes    
##  5              5 Positive group A Negati… Yes     Drowsi… Mild    Yes     NA      Yes    
##  6              6 Positive group A Negati… No      NA      NA      Yes     NA      Yes    
##  7              7 Positive group B Negati… No      NA      NA      Yes     NA      Yes    
##  8              8 Positive group A Negati… No      NA      NA      Yes     NA      Yes    
##  9              9 Positive group A Negati… No      NA      NA      Yes     NA      Yes    
## 10             10 Positive group A NA      NA      NA      NA      No      lost t… No     
## # … with 390 more rows, and abbreviated variable names ¹​baseline_13c_ubt,
## #   ²​randomized_group, ³​follow_up13c_ubt_4_weeks_after_therapy, ⁴​adverse_drug_reactions,
## #   ⁵​adverse_drug_reactions_content, ⁶​adverse_drug_reaction_classified,
## #   ⁷​complete_the_study, ⁸​uncompleted_reason, ⁹​per_protocol_analysis
```
…
A pesar de que `janitor::clean_names()` nos proporciona una gran solución para el formateo de nombres de variables que tienen espacios y/o símbolos, a veces podría ser necesario modificar específicamente el nombre de algunas variables. Para ello usaremos la función `rename` de la siguiente manera:

.scroll-output300[

```r
trial_data <- trial_data %>% 
  rename(
*   follow_4_weeks = follow_up13c_ubt_4_weeks_after_therapy
  )
trial_data
```

```
## # A tibble: 400 × 10
*##    patient_number baseli…¹ rando…² follo…³ adver…⁴ adver…⁵ adver…⁶ compl…⁷ uncom…⁸ per_p…⁹
##             <dbl> <chr>    <chr>   <chr>   <chr>   <chr>   <chr>   <chr>   <chr>   <chr>  
##  1              1 Positive group B Negati… No      NA      NA      Yes     NA      Yes    
##  2              2 Positive group A Negati… Yes     Fatigue Mild    Yes     NA      Yes    
##  3              3 Positive group B Negati… No      NA      NA      Yes     NA      Yes    
##  4              4 Positive group A Positi… Yes     Abdomi… Mild    Yes     NA      Yes    
##  5              5 Positive group A Negati… Yes     Drowsi… Mild    Yes     NA      Yes    
##  6              6 Positive group A Negati… No      NA      NA      Yes     NA      Yes    
##  7              7 Positive group B Negati… No      NA      NA      Yes     NA      Yes    
##  8              8 Positive group A Negati… No      NA      NA      Yes     NA      Yes    
##  9              9 Positive group A Negati… No      NA      NA      Yes     NA      Yes    
## 10             10 Positive group A NA      NA      NA      NA      No      lost t… No     
## # … with 390 more rows, and abbreviated variable names ¹​baseline_13c_ubt,
## #   ²​randomized_group, ³​follow_4_weeks, ⁴​adverse_drug_reactions,
## #   ⁵​adverse_drug_reactions_content, ⁶​adverse_drug_reaction_classified,
## #   ⁷​complete_the_study, ⁸​uncompleted_reason, ⁹​per_protocol_analysis
```
…
.pull-right[
1. Configurar la variable `ID`

.scroll-output325[.code80[

```r
trial_data %>% 
  mutate(
    patient_number = as.character(patient_number)
  )
```

```
## # A tibble: 400 × 10
##    patient_…¹ basel…² rando…³ follo…⁴ adver…⁵
##    <chr>      <chr>   <chr>   <chr>   <chr>  
##  1 1          Positi… group B Negati… No     
##  2 2          Positi… group A Negati… Yes    
##  3 3          Positi… group B Negati… No     
##  4 4          Positi… group A Positi… Yes    
##  5 5          Positi… group A Negati… Yes    
##  6 6          Positi… group A Negati… No     
##  7 7          Positi… group B Negati… No     
##  8 8          Positi… group A Negati… No     
##  9 9          Positi… group A Negati… No     
## 10 10         Positi… group A NA      NA     
## # … with 390 more rows, 5 more variables:
## #   adverse_drug_reactions_content <chr>,
## #   adverse_drug_reaction_classified <chr>,
## #   complete_the_study <chr>,
## #   uncompleted_reason <chr>,
## #   per_protocol_analysis <chr>, and
## #   abbreviated variable names …
```
…
]

.pull-right[
.scroll-output350[.code80[

```r
trial_data %>% 
  mutate(
*   randomized_group = factor(randomized_group),
*   complete_the_study = factor(complete_the_study)
  )
```

```
## # A tibble: 400 × 10
##    patient_…¹ basel…² rando…³ follo…⁴ adver…⁵
##         <dbl> <chr>   <fct>   <chr>   <chr>  
##  1          1 Positi… group B Negati… No     
##  2          2 Positi… group A Negati… Yes    
##  3          3 Positi… group B Negati… No     
##  4          4 Positi… group A Positi… Yes    
##  5          5 Positi… group A Negati… Yes    
##  6          6 Positi… group A Negati… No     
##  7          7 Positi… group B Negati… No     
##  8          8 Positi… group A Negati… No     
##  9          9 Positi… group A Negati… No     
## 10         10 Positi… group A NA      NA     
## # … with 390 more rows, 5 more variables:
…
## Uso de arrange() 
.line-space1-7[.font100[Ya hemos visto que `count()` es sumamente útil. Además, basta con agregar más variables dentro de sus argumentos, para que estos automáticamente ingresen a generar una tabla de frecuencias. 

 Sin embargo, a veces puede ser necesario ordenar esos resultados, para ello usaremos `arrange()`. La función `arrange()` permitirá ordenar un objeto en base a una o múltiples variables.]]
.panel1-arrange_1-user[

```r
*trial_data
```
]
 
.panel2-arrange_1-user[

```
## # A tibble: 400 × 10
##    patient…¹ basel…² rando…³ follo…⁴ adver…⁵ adver…⁶ adver…⁷
##        <dbl> <chr>   <chr>   <chr>   <chr>   <chr>   <chr>  
##  1         1 Positi… group B Negati… No      NA      NA     
##  2         2 Positi… group A Negati… Yes     Fatigue Mild   
##  3         3 Positi… group B Negati… No      NA      NA     
##  4         4 Positi… group A Positi… Yes     Abdomi… Mild   
##  5         5 Positi… group A Negati… Yes     Drowsi… Mild   
##  6         6 Positi… group A Negati… No      NA      NA     
##  7         7 Positi… group B Negati… No      NA      NA     
##  8         8 Positi… group A Negati… No      NA      NA     
##  9         9 Positi… group A Negati… No      NA      NA     
## 10        10 Positi… group A NA      NA      NA      NA     
## # … with 390 more rows, 3 more variables:
## #   complete_the_study <chr>, uncompleted_reason <chr>,
## #   per_protocol_analysis <chr>, and abbreviated variable
## #   names ¹​patient_number, ²​baseline_13c_ubt,
## #   ³​randomized_group, ⁴​follow_4_weeks,
## #   ⁵​adverse_drug_reactions,
## #   ⁶​adverse_drug_reactions_content, …
```
…
count: false
 
## Uso de slice_max() 
.line-space1-7[.font110[Anteriormente conocido como `top_n()`, la función `slice_max()`, permite seleccionar cuantos casos (filas) se específique en base a una variable numérica.]]
.panel1-slice_max_1-user[

```r
*trial_data
```
]
 
.panel2-slice_max_1-user[

```
## # A tibble: 400 × 10
##    patient…¹ basel…² rando…³ follo…⁴ adver…⁵ adver…⁶ adver…⁷
##        <dbl> <chr>   <chr>   <chr>   <chr>   <chr>   <chr>  
##  1         1 Positi… group B Negati… No      NA      NA     
##  2         2 Positi… group A Negati… Yes     Fatigue Mild   
##  3         3 Positi… group B Negati… No      NA      NA     
##  4         4 Positi… group A Positi… Yes     Abdomi… Mild   
##  5         5 Positi… group A Negati… Yes     Drowsi… Mild   
##  6         6 Positi… group A Negati… No      NA      NA     
##  7         7 Positi… group B Negati… No      NA      NA     
##  8         8 Positi… group A Negati… No      NA      NA     
##  9         9 Positi… group A Negati… No      NA      NA     
## 10        10 Positi… group A NA      NA      NA      NA     
## # … with 390 more rows, 3 more variables:
## #   complete_the_study <chr>, uncompleted_reason <chr>,
## #   per_protocol_analysis <chr>, and abbreviated variable
## #   names ¹​patient_number, ²​baseline_13c_ubt,
## #   ³​randomized_group, ⁴​follow_4_weeks,
## #   ⁵​adverse_drug_reactions,
## #   ⁶​adverse_drug_reactions_content, …
```
…
.panel[.panel-name[Importación]

La función `read_csv` del paquete `readr` (se carga automáticamente cuando se realiza `library(tidyverse)`), permite importar archivos `csv` (data) incluso cuando el archivo está en una web.

.scroll-output300[

```r
covid19 <- read_csv("https://raw.githubusercontent.com/CSSEGISandData/COVID-19/master/csse_covid_19_data/csse_covid_19_time_series/time_series_covid19_deaths_global.csv")
covid19
```

```
## # A tibble: 289 × 985
##    Province…¹ Count…²   Lat   Long 1/22/…³ 1/23/…⁴ 1/24/…⁵ 1/25/…⁶ 1/26/…⁷ 1/27/…⁸ 1/28/…⁹
##    <chr>      <chr>   <dbl>  <dbl>   <dbl>   <dbl>   <dbl>   <dbl>   <dbl>   <dbl>   <dbl>
##  1 <NA>       Afghan…  33.9  67.7        0       0       0       0       0       0       0
##  2 <NA>       Albania  41.2  20.2        0       0       0       0       0       0       0
##  3 <NA>       Algeria  28.0   1.66       0       0       0       0       0       0       0
##  4 <NA>       Andorra  42.5   1.52       0       0       0       0       0       0       0
##  5 <NA>       Angola  -11.2  17.9        0       0       0       0       0       0       0
##  6 <NA>       Antarc… -71.9  23.3        0       0       0       0       0       0       0
##  7 <NA>       Antigu…  17.1 -61.8        0       0       0       0       0       0       0
##  8 <NA>       Argent… -38.4 -63.6        0       0       0       0       0       0       0
##  9 <NA>       Armenia  40.1  45.0        0       0       0       0       0       0       0
## 10 Australia… Austra… -35.5 149.         0       0       0       0       0       0       0
## # … with 279 more rows, 974 more variables: `1/29/20` <dbl>, `1/30/20` <dbl>,
## #   `1/31/20` <dbl>, `2/1/20` <dbl>, `2/2/20` <dbl>, `2/3/20` <dbl>, `2/4/20` <dbl>,
## #   `2/5/20` <dbl>, `2/6/20` <dbl>, `2/7/20` <dbl>, `2/8/20` <dbl>, `2/9/20` <dbl>,
## #   `2/10/20` <dbl>, `2/11/20` <dbl>, `2/12/20` <dbl>, `2/13/20` <dbl>, `2/14/20` <dbl>,
## #   `2/15/20` <dbl>, `2/16/20` <dbl>, `2/17/20` <dbl>, `2/18/20` <dbl>, `2/19/20` <dbl>,
## #   `2/20/20` <dbl>, `2/21/20` <dbl>, `2/22/20` <dbl>, `2/23/20` <dbl>, `2/24/20` <dbl>,
## #   `2/25/20` <dbl>, `2/26/20` <dbl>, `2/27/20` <dbl>, `2/28/20` <dbl>, …
```
…
