Introducción a R y Tidyverse
…
Para esta ejemplificación usaremos la base de datos del ECA  sobre la [erradicación de la infección por *Helicobácter Pylori*](https://www.nature.com/articles/s41598-018-27482-2) explicado en la [sesión 02](https://healthinnovation.github.io/curso-introduccion-r-tidyverse/sesion_02/#14). Recordar siempre cargar tidyverse (`library()`)

.scroll-output300[

```r
trial_data <- readxl::read_excel("data/researchdata.xlsx") %>%
  janitor::clean_names() %>%
  rename(
    follow_4_weeks = follow_up13c_ubt_4_weeks_after_therapy
  )
trial_data
```

```
## # A tibble: 400 × 10
##    patient_number baseli…¹ rando…² follo…³ adver…⁴ adver…⁵ adver…⁶ compl…⁷ uncom…⁸ per_p…⁹
##             <dbl> <chr>    <chr>   <chr>   <chr>   <chr>   <chr>   <chr>   <chr>   <chr>  
##  1              1 Positive group B Negati… No      NA      NA      Yes     NA      Yes    
##  2              2 Positive group A Negati… Yes     Fatigue Mild    Yes     NA      Yes    
##  3              3 Positive group B Negati… No      NA      NA      Yes     NA      Yes    
##  4              4 Positive group A Positi… Yes     Abdomi… Mild    Yes     NA      Yes    
##  5              5 Positive group A Negati… Yes     Drowsi… Mild    Yes     NA      Yes    
##  6              6 Positive group A Negati… No      NA      NA      Yes     NA      Yes    
##  7              7 Positive group B Negati… No      NA      NA      Yes     NA      Yes    
##  8              8 Positive group A Negati… No      NA      NA      Yes     NA      Yes    
##  9              9 Positive group A Negati… No      NA      NA      Yes     NA      Yes    
## 10             10 Positive group A NA      NA      NA      NA      No      lost t… No     
## # … with 390 more rows, and abbreviated variable names ¹​baseline_13c_ubt,
## #   ²​randomized_group, ³​follow_4_weeks, ⁴​adverse_drug_reactions,
## #   ⁵​adverse_drug_reactions_content, ⁶​adverse_drug_reaction_classified,
## #   ⁷​complete_the_study, ⁸​uncompleted_reason, ⁹​per_protocol_analysis
## # ℹ Use `print(n = ...)` to see more rows
```
…
Esta función es una forma conveniente de unir 2 o más columnas en una sola (juntar texto), mediante un separador por defecto (`-`) o indicando uno en específico (arg. `sep = " | "`). 

.scroll-output300[

```r
trial_data %>%
  unite(
    group_follow_4_weeks,
    randomized_group,
    follow_4_weeks
  )
```

```
## # A tibble: 400 × 9
##    patient_number baseline_13c_ubt group…¹ adver…² adver…³ adver…⁴ compl…⁵ uncom…⁶ per_p…⁷
##             <dbl> <chr>            <chr>   <chr>   <chr>   <chr>   <chr>   <chr>   <chr>  
##  1              1 Positive         group … No      NA      NA      Yes     NA      Yes    
##  2              2 Positive         group … Yes     Fatigue Mild    Yes     NA      Yes    
##  3              3 Positive         group … No      NA      NA      Yes     NA      Yes    
##  4              4 Positive         group … Yes     Abdomi… Mild    Yes     NA      Yes    
##  5              5 Positive         group … Yes     Drowsi… Mild    Yes     NA      Yes    
##  6              6 Positive         group … No      NA      NA      Yes     NA      Yes    
##  7              7 Positive         group … No      NA      NA      Yes     NA      Yes    
##  8              8 Positive         group … No      NA      NA      Yes     NA      Yes    
##  9              9 Positive         group … No      NA      NA      Yes     NA      Yes    
## 10             10 Positive         group … NA      NA      NA      No      lost t… No     
## # … with 390 more rows, and abbreviated variable names ¹​group_follow_4_weeks,
## #   ²​adverse_drug_reactions, ³​adverse_drug_reactions_content,
## #   ⁴​adverse_drug_reaction_classified, ⁵​complete_the_study, ⁶​uncompleted_reason,
## #   ⁷​per_protocol_analysis
## # ℹ Use `print(n = ...)` to see more rows
```
…
.pull-right[.scroll-output375[

```r
nycflights13::flights
```

```
## # A tibble: 336,776 × 19
##     year month   day dep_time sched_dep_…¹
##    <int> <int> <int>    <int>        <int>
##  1  2013     1     1      517          515
##  2  2013     1     1      533          529
##  3  2013     1     1      542          540
##  4  2013     1     1      544          545
##  5  2013     1     1      554          600
##  6  2013     1     1      554          558
##  7  2013     1     1      555          600
##  8  2013     1     1      557          600
##  9  2013     1     1      557          600
## 10  2013     1     1      558          600
## # … with 336,766 more rows, 14 more
## #   variables: dep_delay <dbl>,
## #   arr_time <int>, sched_arr_time <int>,
## #   arr_delay <dbl>, carrier <chr>,
## #   flight <int>, tailnum <chr>,
## #   origin <chr>, dest <chr>,
## #   air_time <dbl>, distance <dbl>, …
## # ℹ Use `print(n = ...)` to see more rows, and `colnames()` to see all variable names
```
…
.pull-right[
Si quisieramos solo trabajar con los huracanes de categoría 5, tendríamos que hacer lo siguiente con la función `filter()`:

.scroll-output300[

```r
storms %>% 
  filter(status == "hurricane",
         category == 5)
```

```
## # A tibble: 86 × 13
##    name     year month   day  hour   lat
##    <chr>   <dbl> <dbl> <int> <dbl> <dbl>
##  1 Anita    1977     9     2     0  24.6
##  2 Anita    1977     9     2     6  24.2
##  3 David    1979     8    30     6  16  
##  4 David    1979     8    30    12  16.3
##  5 David    1979     8    30    18  16.6
##  6 David    1979     8    31     0  16.8
##  7 David    1979     8    31     6  17  
##  8 David    1979     8    31    12  17.2
##  9 David    1979     8    31    18  17.9
## 10 Gilbert  1988     9    13    18  19.4
## # … with 76 more rows, and 7 more
## #   variables: long <dbl>, status <chr>,
## #   category <ord>, wind <int>,
## #   pressure <int>,
## #   tropicalstorm_force_diameter <int>,
## #   hurricane_force_diameter <int>
## # ℹ Use `print(n = ...)` to see more rows, and `colnames()` to see all variable names
```
…
El uso de las funciones con **pipe** (` %>% `) permite anidarlas una tras otra. Además, si las columnas están una a lado de otra, podemos usar `:` para seleccionar varios al mismo tiempo.

.pull-left[
.scroll-output400[

```r
storms %>% 
  filter(status == "hurricane",
         category == 5) %>% 
  select(name, year, month, day, hour, wind)
```

```
## # A tibble: 86 × 6
##    name     year month   day  hour  wind
##    <chr>   <dbl> <dbl> <int> <dbl> <int>
##  1 Anita    1977     9     2     0   140
##  2 Anita    1977     9     2     6   150
##  3 David    1979     8    30     6   140
##  4 David    1979     8    30    12   145
##  5 David    1979     8    30    18   150
##  6 David    1979     8    31     0   145
##  7 David    1979     8    31     6   145
##  8 David    1979     8    31    12   145
##  9 David    1979     8    31    18   150
## 10 Gilbert  1988     9    13    18   140
## # … with 76 more rows
## # ℹ Use `print(n = ...)` to see more rows
```
]]

.pull-right[
.scroll-output400[

```r
storms %>% 
  filter(status == "hurricane",
         category == 5) %>% 
  select(name:hour, wind)
```

```
## # A tibble: 86 × 6
##    name     year month   day  hour  wind
##    <chr>   <dbl> <dbl> <int> <dbl> <int>
##  1 Anita    1977     9     2     0   140
##  2 Anita    1977     9     2     6   150
##  3 David    1979     8    30     6   140
##  4 David    1979     8    30    12   145
##  5 David    1979     8    30    18   150
##  6 David    1979     8    31     0   145
##  7 David    1979     8    31     6   145
##  8 David    1979     8    31    12   145
##  9 David    1979     8    31    18   150
## 10 Gilbert  1988     9    13    18   140
## # … with 76 more rows
## # ℹ Use `print(n = ...)` to see more rows
```
…
