Introducción a R y Tidyverse
…
.pull-right[.scroll-output375[

```r
library(tidyverse)
nycflights13::flights
```

```
## # A tibble: 336,776 × 19
##     year month   day dep_time
##    <int> <int> <int>    <int>
##  1  2013     1     1      517
##  2  2013     1     1      533
##  3  2013     1     1      542
##  4  2013     1     1      544
##  5  2013     1     1      554
##  6  2013     1     1      554
##  7  2013     1     1      555
##  8  2013     1     1      557
##  9  2013     1     1      557
## 10  2013     1     1      558
## # … with 336,766 more rows, and 15 more
## #   variables: sched_dep_time <int>,
## #   dep_delay <dbl>, arr_time <int>,
## #   sched_arr_time <int>,
## #   arr_delay <dbl>, carrier <chr>,
## #   flight <int>, tailnum <chr>,
## #   origin <chr>, dest <chr>, …
```
…
.pull-right[
Si quisieramos solo trabajar con los huracanes de categoría 5, tendríamos que hacer lo siguiente con la función `filter()`:

.scroll-output300[

```r
storms %>% 
  filter(status == "hurricane",
         category == 5)
```

```
## # A tibble: 86 × 13
##    name     year month   day  hour   lat
##    <chr>   <dbl> <dbl> <int> <dbl> <dbl>
##  1 Anita    1977     9     2     0  24.6
##  2 Anita    1977     9     2     6  24.2
##  3 David    1979     8    30     6  16  
##  4 David    1979     8    30    12  16.3
##  5 David    1979     8    30    18  16.6
##  6 David    1979     8    31     0  16.8
##  7 David    1979     8    31     6  17  
##  8 David    1979     8    31    12  17.2
##  9 David    1979     8    31    18  17.9
## 10 Gilbert  1988     9    13    18  19.4
## # … with 76 more rows, and 7 more
## #   variables: long <dbl>, status <chr>,
## #   category <ord>, wind <int>,
## #   pressure <int>,
## #   tropicalstorm_force_diameter <int>,
## #   hurricane_force_diameter <int>
```
…
El uso de las funciones con **pipe** (` %>% `) permite anidarlas una tras otra. Además, si las columnas están una a lado de otra, podemos usar `:` para seleccionar varios al mismo tiempo.

.pull-left[
.scroll-output400[

```r
storms %>% 
  filter(status == "hurricane",
         category == 5) %>% 
  select(name, year, month, day, hour, wind)
```

```
## # A tibble: 86 × 6
##    name     year month   day  hour  wind
##    <chr>   <dbl> <dbl> <int> <dbl> <int>
##  1 Anita    1977     9     2     0   140
##  2 Anita    1977     9     2     6   150
##  3 David    1979     8    30     6   140
##  4 David    1979     8    30    12   145
##  5 David    1979     8    30    18   150
##  6 David    1979     8    31     0   145
##  7 David    1979     8    31     6   145
##  8 David    1979     8    31    12   145
##  9 David    1979     8    31    18   150
## 10 Gilbert  1988     9    13    18   140
## # … with 76 more rows
```
]]

.pull-right[
.scroll-output400[

```r
storms %>% 
  filter(status == "hurricane",
         category == 5) %>% 
  select(name:hour, wind)
```

```
## # A tibble: 86 × 6
##    name     year month   day  hour  wind
##    <chr>   <dbl> <dbl> <int> <dbl> <int>
##  1 Anita    1977     9     2     0   140
##  2 Anita    1977     9     2     6   150
##  3 David    1979     8    30     6   140
##  4 David    1979     8    30    12   145
##  5 David    1979     8    30    18   150
##  6 David    1979     8    31     0   145
##  7 David    1979     8    31     6   145
##  8 David    1979     8    31    12   145
##  9 David    1979     8    31    18   150
## 10 Gilbert  1988     9    13    18   140
## # … with 76 more rows
```
…
Para tener una mejor apreciación de la variable de fecha que crearemos, usaremos `relocate()` para reposicionar a la variable creada.]]
.panel1-mutate_lubr_1-user[

```r
*storms %>%
* select(name:pressure)
```
]
 
.panel2-mutate_lubr_1-user[

```
## # A tibble: 11,859 × 11
##    name   year month   day  hour   lat  long status    
##    <chr> <dbl> <dbl> <int> <dbl> <dbl> <dbl> <chr>     
##  1 Amy    1975     6    27     0  27.5 -79   tropical …
##  2 Amy    1975     6    27     6  28.5 -79   tropical …
##  3 Amy    1975     6    27    12  29.5 -79   tropical …
##  4 Amy    1975     6    27    18  30.5 -79   tropical …
##  5 Amy    1975     6    28     0  31.5 -78.8 tropical …
##  6 Amy    1975     6    28     6  32.4 -78.7 tropical …
##  7 Amy    1975     6    28    12  33.3 -78   tropical …
##  8 Amy    1975     6    28    18  34   -77   tropical …
##  9 Amy    1975     6    29     0  34.4 -75.8 tropical …
## 10 Amy    1975     6    29     6  34   -74.8 tropical …
## # … with 11,849 more rows, and 3 more variables:
## #   category <ord>, wind <int>, pressure <int>
```
…
```r
storms %>%
  select(name:pressure) %>%
* mutate(
*   date = lubridate::make_date(year, month, day)
* )
```
]
 
.panel2-mutate_lubr_1-user[

```
## # A tibble: 11,859 × 12
##    name   year month   day  hour   lat  long status    
##    <chr> <dbl> <dbl> <int> <dbl> <dbl> <dbl> <chr>     
##  1 Amy    1975     6    27     0  27.5 -79   tropical …
##  2 Amy    1975     6    27     6  28.5 -79   tropical …
##  3 Amy    1975     6    27    12  29.5 -79   tropical …
##  4 Amy    1975     6    27    18  30.5 -79   tropical …
##  5 Amy    1975     6    28     0  31.5 -78.8 tropical …
##  6 Amy    1975     6    28     6  32.4 -78.7 tropical …
##  7 Amy    1975     6    28    12  33.3 -78   tropical …
##  8 Amy    1975     6    28    18  34   -77   tropical …
##  9 Amy    1975     6    29     0  34.4 -75.8 tropical …
## 10 Amy    1975     6    29     6  34   -74.8 tropical …
## # … with 11,849 more rows, and 4 more variables:
## #   category <ord>, wind <int>, pressure <int>,
## #   date <date>
```
…
```r
storms %>%
  select(name:pressure) %>%
  mutate(
    date = lubridate::make_date(year, month, day)
  ) %>%
* relocate(date, .before = year)
```
]
 
.panel2-mutate_lubr_1-user[

```
## # A tibble: 11,859 × 12
##    name  date        year month   day  hour   lat  long
##    <chr> <date>     <dbl> <dbl> <int> <dbl> <dbl> <dbl>
##  1 Amy   1975-06-27  1975     6    27     0  27.5 -79  
##  2 Amy   1975-06-27  1975     6    27     6  28.5 -79  
##  3 Amy   1975-06-27  1975     6    27    12  29.5 -79  
##  4 Amy   1975-06-27  1975     6    27    18  30.5 -79  
##  5 Amy   1975-06-28  1975     6    28     0  31.5 -78.8
##  6 Amy   1975-06-28  1975     6    28     6  32.4 -78.7
##  7 Amy   1975-06-28  1975     6    28    12  33.3 -78  
##  8 Amy   1975-06-28  1975     6    28    18  34   -77  
##  9 Amy   1975-06-29  1975     6    29     0  34.4 -75.8
## 10 Amy   1975-06-29  1975     6    29     6  34   -74.8
## # … with 11,849 more rows, and 4 more variables:
## #   status <chr>, category <ord>, wind <int>,
## #   pressure <int>
```
…
.line-space1-7[.font110[
Esta función permite poder indicarle a R que las operaciones que hagamos en adelante, sean divididas y aplicadas por las agrupaciones que sea haya formado. Es decir, que se puede hacer la agrupación por una o múltiples variables.
]]

.pull-left[.scroll-output350[

```r
storms %>% 
  filter(year >= 2010) %>% 
  group_by(name)
```

```
## # A tibble: 3,608 × 13
## # Groups:   name [112]
##    name   year month   day  hour   lat
##    <chr> <dbl> <dbl> <int> <dbl> <dbl>
##  1 Alex   2010     6    25    18  16.4
##  2 Alex   2010     6    26     0  16.6
##  3 Alex   2010     6    26     6  16.7
##  4 Alex   2010     6    26    12  16.9
##  5 Alex   2010     6    26    18  17.2
##  6 Alex   2010     6    27     0  17.5
##  7 Alex   2010     6    27     6  18  
##  8 Alex   2010     6    27    12  18.5
##  9 Alex   2010     6    27    18  18.9
## 10 Alex   2010     6    28     0  19.2
## # … with 3,598 more rows, and 7 more
## #   variables: long <dbl>, status <chr>,
## #   category <ord>, wind <int>,
## #   pressure <int>,
## #   tropicalstorm_force_diameter <int>,
## #   hurricane_force_diameter <int>
```
…
.panel[.panel-name[Importación]

Mediante la función `read_csv` podremos importar la data directamente desde **Github**.

.scroll-output350[

```r
covid19 <- read_csv("https://raw.githubusercontent.com/CSSEGISandData/COVID-19/master/csse_covid_19_data/csse_covid_19_time_series/time_series_covid19_deaths_global.csv")
covid19
```

```
## # A tibble: 285 × 867
##    `Province/State`  `Country/Region`   Lat   Long `1/22/20` `1/23/20` `1/24/20` `1/25/20`
##    <chr>             <chr>            <dbl>  <dbl>     <dbl>     <dbl>     <dbl>     <dbl>
##  1 <NA>              Afghanistan       33.9  67.7          0         0         0         0
##  2 <NA>              Albania           41.2  20.2          0         0         0         0
##  3 <NA>              Algeria           28.0   1.66         0         0         0         0
##  4 <NA>              Andorra           42.5   1.52         0         0         0         0
##  5 <NA>              Angola           -11.2  17.9          0         0         0         0
##  6 <NA>              Antarctica       -71.9  23.3          0         0         0         0
##  7 <NA>              Antigua and Bar…  17.1 -61.8          0         0         0         0
##  8 <NA>              Argentina        -38.4 -63.6          0         0         0         0
##  9 <NA>              Armenia           40.1  45.0          0         0         0         0
## 10 Australian Capit… Australia        -35.5 149.           0         0         0         0
## # … with 275 more rows, and 859 more variables: `1/26/20` <dbl>, `1/27/20` <dbl>,
## #   `1/28/20` <dbl>, `1/29/20` <dbl>, `1/30/20` <dbl>, `1/31/20` <dbl>, `2/1/20` <dbl>,
## #   `2/2/20` <dbl>, `2/3/20` <dbl>, `2/4/20` <dbl>, `2/5/20` <dbl>, `2/6/20` <dbl>,
## #   `2/7/20` <dbl>, `2/8/20` <dbl>, `2/9/20` <dbl>, `2/10/20` <dbl>, `2/11/20` <dbl>,
## #   `2/12/20` <dbl>, `2/13/20` <dbl>, `2/14/20` <dbl>, `2/15/20` <dbl>, `2/16/20` <dbl>,
## #   `2/17/20` <dbl>, `2/18/20` <dbl>, `2/19/20` <dbl>, `2/20/20` <dbl>, `2/21/20` <dbl>,
## #   `2/22/20` <dbl>, `2/23/20` <dbl>, `2/24/20` <dbl>, `2/25/20` <dbl>, …
```
…
count: false
 
#Uso de .code[summarise()] 
.line-space1-5[.font110[Recordar que primero debemos *pivotear* la data para poder trabajar con ella. Obtendremos resúmenes de casos por muerte COVID-19 por países.]]
.panel1-summarise_1-user[

```r
*covid19
```
]
 
.panel2-summarise_1-user[

```
## # A tibble: 285 × 867
##    `Province/State`       `Country/Region`   Lat   Long
##    <chr>                  <chr>            <dbl>  <dbl>
##  1 <NA>                   Afghanistan       33.9  67.7 
##  2 <NA>                   Albania           41.2  20.2 
##  3 <NA>                   Algeria           28.0   1.66
##  4 <NA>                   Andorra           42.5   1.52
##  5 <NA>                   Angola           -11.2  17.9 
##  6 <NA>                   Antarctica       -71.9  23.3 
##  7 <NA>                   Antigua and Bar…  17.1 -61.8 
##  8 <NA>                   Argentina        -38.4 -63.6 
##  9 <NA>                   Armenia           40.1  45.0 
## 10 Australian Capital Te… Australia        -35.5 149.  
## # … with 275 more rows, and 863 more variables:
## #   `1/22/20` <dbl>, `1/23/20` <dbl>, `1/24/20` <dbl>,
## #   `1/25/20` <dbl>, `1/26/20` <dbl>, `1/27/20` <dbl>,
## #   `1/28/20` <dbl>, `1/29/20` <dbl>, `1/30/20` <dbl>,
## #   `1/31/20` <dbl>, `2/1/20` <dbl>, `2/2/20` <dbl>,
## #   `2/3/20` <dbl>, `2/4/20` <dbl>, `2/5/20` <dbl>,
## #   `2/6/20` <dbl>, `2/7/20` <dbl>, `2/8/20` <dbl>, …
```
…
```r
covid19 %>%
* select(-c(Lat:Long)) %>%
* pivot_longer(
*   cols = -c(`Province/State`:`Country/Region`),
*   names_to = "fecha",
*   values_to = "fallecidos"
* )
```
]
 
.panel2-summarise_1-user[

```
## # A tibble: 245,955 × 4
##    `Province/State` `Country/Region` fecha   fallecidos
##    <chr>            <chr>            <chr>        <dbl>
##  1 <NA>             Afghanistan      1/22/20          0
##  2 <NA>             Afghanistan      1/23/20          0
##  3 <NA>             Afghanistan      1/24/20          0
##  4 <NA>             Afghanistan      1/25/20          0
##  5 <NA>             Afghanistan      1/26/20          0
##  6 <NA>             Afghanistan      1/27/20          0
##  7 <NA>             Afghanistan      1/28/20          0
##  8 <NA>             Afghanistan      1/29/20          0
##  9 <NA>             Afghanistan      1/30/20          0
## 10 <NA>             Afghanistan      1/31/20          0
## # … with 245,945 more rows
```
…
.panel2-summarise_1-user[

```
## # A tibble: 245,955 × 4
## # Groups:   Country/Region [199]
##    `Province/State` `Country/Region` fecha   fallecidos
##    <chr>            <chr>            <chr>        <dbl>
##  1 <NA>             Afghanistan      1/22/20          0
##  2 <NA>             Afghanistan      1/23/20          0
##  3 <NA>             Afghanistan      1/24/20          0
##  4 <NA>             Afghanistan      1/25/20          0
##  5 <NA>             Afghanistan      1/26/20          0
##  6 <NA>             Afghanistan      1/27/20          0
##  7 <NA>             Afghanistan      1/28/20          0
##  8 <NA>             Afghanistan      1/29/20          0
##  9 <NA>             Afghanistan      1/30/20          0
## 10 <NA>             Afghanistan      1/31/20          0
## # … with 245,945 more rows
```
…
.panel2-summarise_1-user[

```
## # A tibble: 199 × 5
##    `Country/Region`          M      DE    Max   Min
##    <chr>                 <dbl>   <dbl>  <dbl> <dbl>
##  1 Afghanistan          3749.   2961.    7708     0
##  2 Albania              1721.   1313.    3497     0
##  3 Algeria              3447.   2331.    6875     0
##  4 Andorra                96.3    46.8    155     0
##  5 Angola                805.    727.    1900     0
##  6 Antarctica              0       0        0     0
##  7 Antigua and Barbuda    46.1    51.3    138     0
##  8 Argentina           63364.  49279.  128889     0
##  9 Armenia              3794.   3020.    8625     0
## 10 Australia             206.    540.    3464     0
## # … with 189 more rows
```
…
.panel2-summarise_1-user[

```
## # A tibble: 199 × 5
##    `Country/Region`       M      DE     Max   Min
##    <chr>              <dbl>   <dbl>   <dbl> <dbl>
##  1 US               481207  321984. 1008031     0
##  2 Brazil           343026. 248750.  666930     0
##  3 India            251314. 198830.  524651     0
##  4 Mexico           172386. 116476.  324966     0
##  5 Russia           132559. 127348.  371628     0
##  6 Peru             127591.  76764.  213227     0
##  7 Italy             90359.  52932.  166835     0
##  8 Colombia          70744.  53699.  139867     0
##  9 Iran              69965.  49917.  141318     0
## 10 Indonesia         64757.  61826.  156600     0
## # … with 189 more rows
```
…
count: false
 
#Uso de .code[summarise()] 
.line-space1-5[.font110[Guardaremos la data pivoteada en un objeto llamado covid19_tidy, para no extender demasiado el código. Además, veamos lo sencillo que es poder introducir un filter a los resultados obtenidos.]]
.panel1-summarise_2-user[

```r
*covid19_tidy
```
]
 
.panel2-summarise_2-user[

```
## # A tibble: 245,955 × 4
##    `Province/State` `Country/Region` fecha   fallecidos
##    <chr>            <chr>            <chr>        <dbl>
##  1 <NA>             Afghanistan      1/22/20          0
##  2 <NA>             Afghanistan      1/23/20          0
##  3 <NA>             Afghanistan      1/24/20          0
##  4 <NA>             Afghanistan      1/25/20          0
##  5 <NA>             Afghanistan      1/26/20          0
##  6 <NA>             Afghanistan      1/27/20          0
##  7 <NA>             Afghanistan      1/28/20          0
##  8 <NA>             Afghanistan      1/29/20          0
##  9 <NA>             Afghanistan      1/30/20          0
## 10 <NA>             Afghanistan      1/31/20          0
## # … with 245,945 more rows
```
…
#Uso de .code[summarise()] 
.line-space1-5[.font110[Guardaremos la data pivoteada en un objeto llamado covid19_tidy, para no extender demasiado el código. Además, veamos lo sencillo que es poder introducir un filter a los resultados obtenidos.]]
.panel1-summarise_2-user[

```r
covid19_tidy %>%
* group_by(`Country/Region`)
```
]
 
.panel2-summarise_2-user[

```
## # A tibble: 245,955 × 4
## # Groups:   Country/Region [199]
##    `Province/State` `Country/Region` fecha   fallecidos
##    <chr>            <chr>            <chr>        <dbl>
##  1 <NA>             Afghanistan      1/22/20          0
##  2 <NA>             Afghanistan      1/23/20          0
##  3 <NA>             Afghanistan      1/24/20          0
##  4 <NA>             Afghanistan      1/25/20          0
##  5 <NA>             Afghanistan      1/26/20          0
##  6 <NA>             Afghanistan      1/27/20          0
##  7 <NA>             Afghanistan      1/28/20          0
##  8 <NA>             Afghanistan      1/29/20          0
##  9 <NA>             Afghanistan      1/30/20          0
## 10 <NA>             Afghanistan      1/31/20          0
## # … with 245,945 more rows
```
…
.panel2-summarise_2-user[

```
## # A tibble: 199 × 5
##    `Country/Region`          M      DE    Max   Min
##    <chr>                 <dbl>   <dbl>  <dbl> <dbl>
##  1 Afghanistan          3749.   2961.    7708     0
##  2 Albania              1721.   1313.    3497     0
##  3 Algeria              3447.   2331.    6875     0
##  4 Andorra                96.3    46.8    155     0
##  5 Angola                805.    727.    1900     0
##  6 Antarctica              0       0        0     0
##  7 Antigua and Barbuda    46.1    51.3    138     0
##  8 Argentina           63364.  49279.  128889     0
##  9 Armenia              3794.   3020.    8625     0
## 10 Australia             206.    540.    3464     0
## # … with 189 more rows
```
…
.panel2-summarise_2-user[

```
## # A tibble: 199 × 5
##    `Country/Region`       M      DE     Max   Min
##    <chr>              <dbl>   <dbl>   <dbl> <dbl>
##  1 US               481207  321984. 1008031     0
##  2 Brazil           343026. 248750.  666930     0
##  3 India            251314. 198830.  524651     0
##  4 Mexico           172386. 116476.  324966     0
##  5 Russia           132559. 127348.  371628     0
##  6 Peru             127591.  76764.  213227     0
##  7 Italy             90359.  52932.  166835     0
##  8 Colombia          70744.  53699.  139867     0
##  9 Iran              69965.  49917.  141318     0
## 10 Indonesia         64757.  61826.  156600     0
## # … with 189 more rows
```
…
count: false
 
#Uso de .code[summarise()] 
.line-space1-5[.font110[Guardaremos la data pivoteada en un objeto llamado covid19_tidy, para no extender demasiado el código. Además, veamos lo sencillo que es poder introducir un filter a los resultados obtenidos.]]
.panel1-summarise_3-user[

```r
*covid19_tidy
```
]
 
.panel2-summarise_3-user[

```
## # A tibble: 245,955 × 4
##    `Province/State` `Country/Region` fecha   fallecidos
##    <chr>            <chr>            <chr>        <dbl>
##  1 <NA>             Afghanistan      1/22/20          0
##  2 <NA>             Afghanistan      1/23/20          0
##  3 <NA>             Afghanistan      1/24/20          0
##  4 <NA>             Afghanistan      1/25/20          0
##  5 <NA>             Afghanistan      1/26/20          0
##  6 <NA>             Afghanistan      1/27/20          0
##  7 <NA>             Afghanistan      1/28/20          0
##  8 <NA>             Afghanistan      1/29/20          0
##  9 <NA>             Afghanistan      1/30/20          0
## 10 <NA>             Afghanistan      1/31/20          0
## # … with 245,945 more rows
```
…
